dumb.vcd
$version Generated by VerilatedVcd $end
$timescale 1ps $end

 $scope module TOP $end
  $scope module program_counter_tb $end
   $var wire  1 # clk $end
   $var wire 32 ' error_count [31:0] $end
   $var wire 32 & pc_current [31:0] $end
   $var wire 32 % pc_next [31:0] $end
   $var wire  1 $ rst_n $end
   $scope module dut $end
    $var wire  1 # clk $end
    $var wire 32 & pc_current [31:0] $end
    $var wire 32 % pc_next [31:0] $end
    $var wire  1 $ rst_n $end
   $upscope $end
  $upscope $end
  $scope module riscv_pkg $end
   $var wire  3 4 FUNCT3_ADD [2:0] $end
   $var wire  3 4 FUNCT3_ADDI [2:0] $end
   $var wire  3 9 FUNCT3_AND [2:0] $end
   $var wire  3 9 FUNCT3_ANDI [2:0] $end
   $var wire  3 4 FUNCT3_BEQ [2:0] $end
   $var wire  3 7 FUNCT3_BGE [2:0] $end
   $var wire  3 9 FUNCT3_BGEU [2:0] $end
   $var wire  3 6 FUNCT3_BLT [2:0] $end
   $var wire  3 8 FUNCT3_BLTU [2:0] $end
   $var wire  3 5 FUNCT3_BNE [2:0] $end
   $var wire  3 4 FUNCT3_JALR [2:0] $end
   $var wire  3 4 FUNCT3_LB [2:0] $end
   $var wire  3 6 FUNCT3_LBU [2:0] $end
   $var wire  3 5 FUNCT3_LH [2:0] $end
   $var wire  3 7 FUNCT3_LHU [2:0] $end
   $var wire  3 : FUNCT3_LW [2:0] $end
   $var wire  3 8 FUNCT3_OR [2:0] $end
   $var wire  3 8 FUNCT3_ORI [2:0] $end
   $var wire  3 4 FUNCT3_SB [2:0] $end
   $var wire  3 5 FUNCT3_SH [2:0] $end
   $var wire  3 5 FUNCT3_SLL [2:0] $end
   $var wire  3 5 FUNCT3_SLLI [2:0] $end
   $var wire  3 : FUNCT3_SLT [2:0] $end
   $var wire  3 : FUNCT3_SLTI [2:0] $end
   $var wire  3 ; FUNCT3_SLTIU [2:0] $end
   $var wire  3 ; FUNCT3_SLTU [2:0] $end
   $var wire  3 7 FUNCT3_SRA [2:0] $end
   $var wire  3 7 FUNCT3_SRAI [2:0] $end
   $var wire  3 7 FUNCT3_SRL [2:0] $end
   $var wire  3 7 FUNCT3_SRLI [2:0] $end
   $var wire  3 4 FUNCT3_SUB [2:0] $end
   $var wire  3 : FUNCT3_SW [2:0] $end
   $var wire  3 6 FUNCT3_XOR [2:0] $end
   $var wire  3 6 FUNCT3_XORI [2:0] $end
   $var wire  7 < FUNCT7_ADD [6:0] $end
   $var wire  7 < FUNCT7_AND [6:0] $end
   $var wire  7 < FUNCT7_OR [6:0] $end
   $var wire  7 < FUNCT7_SLL [6:0] $end
   $var wire  7 < FUNCT7_SLLI [6:0] $end
   $var wire  7 < FUNCT7_SLT [6:0] $end
   $var wire  7 < FUNCT7_SLTU [6:0] $end
   $var wire  7 = FUNCT7_SRA [6:0] $end
   $var wire  7 = FUNCT7_SRAI [6:0] $end
   $var wire  7 < FUNCT7_SRL [6:0] $end
   $var wire  7 < FUNCT7_SRLI [6:0] $end
   $var wire  7 = FUNCT7_SUB [6:0] $end
   $var wire  7 < FUNCT7_XOR [6:0] $end
   $var wire 32 * MEM_SIZE [31:0] $end
   $var wire  7 , OPCODE_AUIPC [6:0] $end
   $var wire  7 / OPCODE_BRANCH [6:0] $end
   $var wire  7 2 OPCODE_I_TYPE [6:0] $end
   $var wire  7 - OPCODE_JAL [6:0] $end
   $var wire  7 . OPCODE_JALR [6:0] $end
   $var wire  7 0 OPCODE_LOAD [6:0] $end
   $var wire  7 + OPCODE_LUI [6:0] $end
   $var wire  7 3 OPCODE_R_TYPE [6:0] $end
   $var wire  7 1 OPCODE_STORE [6:0] $end
   $var wire 32 ) REG_ADDR_WIDTH [31:0] $end
   $var wire 32 ( XLEN [31:0] $end
  $upscope $end
 $upscope $end
$enddefinitions $end


#0
0#
0$
b00000000000000000000000000000000 %
b00000000000000000000000000000000 &
b00000000000000000000000000000000 '
b00000000000000000000000000100000 (
b00000000000000000000000000000101 )
b00000000000000000000010000000000 *
b0110111 +
b0010111 ,
b1101111 -
b1100111 .
b1100011 /
b0000011 0
b0100011 1
b0010011 2
b0110011 3
b000 4
b001 5
b100 6
b101 7
b110 8
b111 9
b010 :
b011 ;
b0000000 <
b0100000 =
#5
1#
1$
#8
b01111001011101100111001111000100 %
#10
0#
#15
1#
b01111001011101100111001111000100 &
#18
b00001011000111100101110110011100 %
#20
0#
#25
1#
b00001011000111100101110110011100 &
#28
b10011110111111011101010100000010 %
#30
0#
#35
1#
b10011110111111011101010100000010 &
#38
b01001000110000101110000011100100 %
#40
0#
#45
1#
b01001000110000101110000011100100 &
#48
b10010010000101111000001101111000 %
#50
0#
#55
1#
b10010010000101111000001101111000 &
#58
b10111011110101011000111010111100 %
#60
0#
#65
1#
b10111011110101011000111010111100 &
#68
b11001010101001001001111010110110 %
#70
0#
#75
1#
b11001010101001001001111010110110 &
#78
b00101010000101001111111111100100 %
#80
0#
#85
1#
b00101010000101001111111111100100 &
#88
b01111101011011111111001110110111 %
#90
0#
#95
1#
b01111101011011111111001110110111 &
#98
b11111100110001000111000101010011 %
#100
0#
#105
1#
b11111100110001000111000101010011 &
#108
b01101111100111100001011100100001 %
#110
0#
#115
1#
b01101111100111100001011100100001 &
#118
b10001010100110100111110111100001 %
#120
0#
#125
1#
b10001010100110100111110111100001 &
#128
b11011111100011001010111111000101 %
#130
0#
#135
1#
b11011111100011001010111111000101 &
#138
b00010010010100111111001110000010 %
#140
0#
#145
1#
b00010010010100111111001110000010 &
#148
b10100100010100011111111101100010 %
#150
0#
#155
1#
b10100100010100011111111101100010 &
#158
b01110011010110000001011000110101 %
#160
0#
#165
1#
b01110011010110000001011000110101 &
#168
b10101101111110111100100100010010 %
#170
0#
#175
1#
b10101101111110111100100100010010 &
#178
b01100010111110011010101101010110 %
#180
0#
#185
1#
b01100010111110011010101101010110 &
#188
b10110100001100100011101111111101 %
#190
0#
#195
1#
b10110100001100100011101111111101 &
#198
b11011100011010110100000111110100 %
#200
0#
#205
1#
b11011100011010110100000111110100 &
#208
b00000110101011011111010100111011 %
#210
0#
#215
1#
b00000110101011011111010100111011 &
#218
b11000110011011010100110101011000 %
#220
0#
#225
1#
b11000110011011010100110101011000 &
#228
b11101001110011110000010010110010 %
#230
0#
#235
1#
b11101001110011110000010010110010 &
#238
b01010110110100010000100001011100 %
#240
0#
#245
1#
b01010110110100010000100001011100 &
#248
b01011010000110111000010100011110 %
#250
0#
#255
1#
b01011010000110111000010100011110 &
#258
b10101101000111110100010110011110 %
#260
0#
#265
1#
b10101101000111110100010110011110 &
#268
b00111101111110001001100110011110 %
#270
0#
#275
1#
b00111101111110001001100110011110 &
#278
b01111011001100110001110011101110 %
#280
0#
#285
1#
b01111011001100110001110011101110 &
#288
b10011000001110110110101100010000 %
#290
0#
#295
1#
b10011000001110110110101100010000 &
#298
b01000000111110110111111101110110 %
#300
0#
#305
1#
b01000000111110110111111101110110 &
#308
b01011010010100001110110101100011 %
#310
0#
#315
1#
b01011010010100001110110101100011 &
#318
b01011001100111111010001011000000 %
#320
0#
#325
1#
b01011001100111111010001011000000 &
#328
b00000001110010001011101100011101 %
#330
0#
#335
1#
b00000001110010001011101100011101 &
#338
b11000001000110110000111100100010 %
#340
0#
#345
1#
b11000001000110110000111100100010 &
#348
b11101111100100111000111100000110 %
#350
0#
#355
1#
b11101111100100111000111100000110 &
#358
b10000101111011100101101110000001 %
#360
0#
#365
1#
b10000101111011100101101110000001 &
#368
b01111001001011010011001001100011 %
#370
0#
#375
1#
b01111001001011010011001001100011 &
#378
b11000100010101001100001001111000 %
#380
0#
#385
1#
b11000100010101001100001001111000 &
#388
b01100000011000101011111001101111 %
#390
0#
#395
1#
b01100000011000101011111001101111 &
#398
b01100011010101001101101011001110 %
#400
0#
#405
1#
b01100011010101001101101011001110 &
#408
b10010011100000111111111011110111 %
#410
0#
#415
1#
b10010011100000111111111011110111 &
#418
b10010011011110010001101011010001 %
#420
0#
#425
1#
b10010011011110010001101011010001 &
#428
b00111100110110011011001110011110 %
#430
0#
#435
1#
b00111100110110011011001110011110 &
#438
b10011100010000111101100001110111 %
#440
0#
#445
1#
b10011100010000111101100001110111 &
#448
b11101100010110001100000101101110 %
#450
0#
#455
1#
b11101100010110001100000101101110 &
#458
b11110001101010000000110010101000 %
#460
0#
#465
1#
b11110001101010000000110010101000 &
#468
b10100100101110001110001101001111 %
#470
0#
#475
1#
b10100100101110001110001101001111 &
#478
b01110001111100101001000010111011 %
#480
0#
#485
1#
b01110001111100101001000010111011 &
#488
b00011001101100101000100110010100 %
#490
0#
#495
1#
b00011001101100101000100110010100 &
#498
b10111101000010110010111011100010 %
#500
0#
#505
1#
b10111101000010110010111011100010 &
#508
b10000010011111111111000101100110 %
#510
0#
#515
1#
b10000010011111111111000101100110 &
#518
b11101111111111000001101100011111 %
#520
0#
#525
1#
b11101111111111000001101100011111 &
#528
b10111101010101001011001100001001 %
#530
0#
#535
1#
b10111101010101001011001100001001 &
#538
b11111111100111001011110011100011 %
#540
0#
#545
1#
b11111111100111001011110011100011 &
#548
b01010111101100001111011000011111 %
#550
0#
#555
1#
b01010111101100001111011000011111 &
#558
b10000001101011011010111110000100 %
#560
0#
#565
1#
b10000001101011011010111110000100 &
#568
b01011111000100000011011011000101 %
#570
0#
#575
1#
b01011111000100000011011011000101 &
#578
b01111001001000011010011000110011 %
#580
0#
#585
1#
b01111001001000011010011000110011 &
#588
b11011111011100101110101001001011 %
#590
0#
#595
1#
b11011111011100101110101001001011 &
#598
b11101110010000100001111010011100 %
#600
0#
#605
1#
b11101110010000100001111010011100 &
#608
b10000110110010001010100011110011 %
#610
0#
#615
1#
b10000110110010001010100011110011 &
#618
b11001110101100110010110011001001 %
#620
0#
#625
1#
b11001110101100110010110011001001 &
#628
b10010011110111010111111011101101 %
#630
0#
#635
1#
b10010011110111010111111011101101 &
#638
b00011011101110010110010111001010 %
#640
0#
#645
1#
b00011011101110010110010111001010 &
#648
b01111100010010011101010101011101 %
#650
0#
#655
1#
b01111100010010011101010101011101 &
#658
b10101110011000010011010001000111 %
#660
0#
#665
1#
b10101110011000010011010001000111 &
#668
b01000011111001011110110100100100 %
#670
0#
#675
1#
b01000011111001011110110100100100 &
#678
b11000011010010011011001011101111 %
#680
0#
#685
1#
b11000011010010011011001011101111 &
#688
b01011101010101001011010010101001 %
#690
0#
#695
1#
b01011101010101001011010010101001 &
#698
b11011011111010001101100101101101 %
#700
0#
#705
1#
b11011011111010001101100101101101 &
#708
b01100110000010000011011100111001 %
#710
0#
#715
1#
b01100110000010000011011100111001 &
#718
b01001110111100101001101001111000 %
#720
0#
#725
1#
b01001110111100101001101001111000 &
#728
b00001010100001111110100011101010 %
#730
0#
#735
1#
b00001010100001111110100011101010 &
#738
b01111101111001110011100011000010 %
#740
0#
#745
1#
b01111101111001110011100011000010 &
#748
b11011011011100110000000101010100 %
#750
0#
#755
1#
b11011011011100110000000101010100 &
#758
b00100010101010100100100101010100 %
#760
0#
#765
1#
b00100010101010100100100101010100 &
#768
b01101000101000001100101100100011 %
#770
0#
#775
1#
b01101000101000001100101100100011 &
#778
b11101000011000111101000110011101 %
#780
0#
#785
1#
b11101000011000111101000110011101 &
#788
b00100111000010000100001110110011 %
#790
0#
#795
1#
b00100111000010000100001110110011 &
#798
b00111001101111000111111110101101 %
#800
0#
#805
1#
b00111001101111000111111110101101 &
#808
b00110100111010010101000011010101 %
#810
0#
#815
1#
b00110100111010010101000011010101 &
#818
b11001110101110010111101100101110 %
#820
0#
#825
1#
b11001110101110010111101100101110 &
#828
b00001010100001111011100011001111 %
#830
0#
#835
1#
b00001010100001111011100011001111 &
#838
b00011111111111111011001100000101 %
#840
0#
#845
1#
b00011111111111111011001100000101 &
#848
b00100000101110001001010111010111 %
#850
0#
#855
1#
b00100000101110001001010111010111 &
#858
b00101111110110100000010010001001 %
#860
0#
#865
1#
b00101111110110100000010010001001 &
#868
b11011010110010000100001011110110 %
#870
0#
#875
1#
b11011010110010000100001011110110 &
#878
b10000110010110001001111110101111 %
#880
0#
#885
1#
b10000110010110001001111110101111 &
#888
b10000000111110011111010111101111 %
#890
0#
#895
1#
b10000000111110011111010111101111 &
#898
b01011011111000000010011110011101 %
#900
0#
#905
1#
b01011011111000000010011110011101 &
#908
b10010100111111100100001100111111 %
#910
0#
#915
1#
b10010100111111100100001100111111 &
#918
b11011011000111001100111011001111 %
#920
0#
#925
1#
b11011011000111001100111011001111 &
#928
b00001111011101011110001100101010 %
#930
0#
#935
1#
b00001111011101011110001100101010 &
#938
b00001001000101001110001101110111 %
#940
0#
#945
1#
b00001001000101001110001101110111 &
#948
b01001011100101001001101010011010 %
#950
0#
#955
1#
b01001011100101001001101010011010 &
#958
b01011001000001101000011100001011 %
#960
0#
#965
1#
b01011001000001101000011100001011 &
#968
b00100100100011000001111101010011 %
#970
0#
#975
1#
b00100100100011000001111101010011 &
#978
b00011011011110000100001010101111 %
#980
0#
#985
1#
b00011011011110000100001010101111 &
#988
b10001000111100111011100110001100 %
#990
0#
#995
1#
b10001000111100111011100110001100 &
#998
b00010001110110101011001100000010 %
#1000
0#
#1005
1#
b00010001110110101011001100000010 &
