dumb.vcd
$version Generated by VerilatedVcd $end
$timescale 1ps $end

 $scope module TOP $end
  $scope module core_model_tb $end
   $var wire  1 r clk $end
   $var wire 32 t file [31:0] $end
   $var wire 32 y line [31:0] $end
   $var wire 32 # prev_instruction [31:0] $end
   $var wire 32 $ prev_rs1_data [31:0] $end
   $var wire 32 % prev_rs2_data [31:0] $end
   $var wire 32 x read [31:0] $end
   $var wire  1 s rst_n $end
   $scope module dut $end
    $var wire  4 ) alu_control [3:0] $end
    $var wire 32 ; alu_result [31:0] $end
    $var wire  2 * alu_src_a_sel [1:0] $end
    $var wire  2 + alu_src_b_sel [1:0] $end
    $var wire  1 > carry_flag $end
    $var wire  1 r clk $end
    $var wire 32 o data_read_data [31:0] $end
    $var wire 32 !! data_write_data [31:0] $end
    $var wire 32 @ imm_extended [31:0] $end
    $var wire  3 1 imm_source [2:0] $end
    $var wire 32 6 instruction [31:0] $end
    $var wire  1 - mem_read $end
    $var wire  2 / mem_size [1:0] $end
    $var wire  1 0 mem_usign_load $end
    $var wire  1 . mem_write $end
    $var wire  1 = negative_flag $end
    $var wire  1 ? overflow_flag $end
    $var wire 32 5 pc_current [31:0] $end
    $var wire 32 z pc_in [31:0] $end
    $var wire 32 4 pc_next [31:0] $end
    $var wire  2 2 pc_src [1:0] $end
    $var wire 32 A pc_target [31:0] $end
    $var wire  5 } rd_addr [4:0] $end
    $var wire  1 , reg_write_enable $end
    $var wire 32 u result [31:0] $end
    $var wire  2 3 result_src [1:0] $end
    $var wire  5 { rs1_addr [4:0] $end
    $var wire 32 7 rs1_data [31:0] $end
    $var wire  5 | rs2_addr [4:0] $end
    $var wire 32 8 rs2_data [31:0] $end
    $var wire  1 s rst_n $end
    $var wire 32 9 source_a [31:0] $end
    $var wire 32 : source_b [31:0] $end
    $var wire 32 ~ write_data [31:0] $end
    $var wire  1 < zero_flag $end
    $scope module ALU $end
     $var wire  4 ) alu_control [3:0] $end
     $var wire 32 ; alu_result [31:0] $end
     $var wire  1 > carry_flag $end
     $var wire  1 = negative_flag $end
     $var wire  1 ? overflow_flag $end
     $var wire  5 D shamt [4:0] $end
     $var wire 32 9 source_a [31:0] $end
     $var wire 32 : source_b [31:0] $end
     $var wire 33 B temp_result [32:0] $end
     $var wire  1 < zero_flag $end
    $upscope $end
    $scope module CU $end
     $var wire  4 ) alu_control [3:0] $end
     $var wire  2 * alu_src_a_sel [1:0] $end
     $var wire  2 + alu_src_b_sel [1:0] $end
     $var wire  1 H branch_taken $end
     $var wire  1 > carry_flag $end
     $var wire  3 F funct3 [2:0] $end
     $var wire  7 G funct7 [6:0] $end
     $var wire  3 1 imm_src [2:0] $end
     $var wire  1 - mem_read $end
     $var wire  2 / mem_size [1:0] $end
     $var wire  1 0 mem_usign_load $end
     $var wire  1 . mem_write $end
     $var wire  1 = negative_flag $end
     $var wire  7 E opcode [6:0] $end
     $var wire  1 ? overflow_flag $end
     $var wire  2 2 pc_src [1:0] $end
     $var wire  1 , reg_write_enable $end
     $var wire  2 3 result_src [1:0] $end
     $var wire  1 < zero_flag $end
    $upscope $end
    $scope module DM $end
     $var wire  2 J byte_offset [1:0] $end
     $var wire  8 p byte_val [7:0] $end
     $var wire  1 r clk $end
     $var wire 32 ; data_addr [31:0] $end
     $var wire 32 o data_read_data [31:0] $end
     $var wire 32 8 data_write_data [31:0] $end
     $var wire 16 q half_val [15:0] $end
     $var wire  1 - mem_read $end
     $var wire  2 / mem_size [1:0] $end
     $var wire  1 . mem_write $end
     $var wire  1 0 unsigned_load $end
     $var wire 10 I word_index [9:0] $end
    $upscope $end
    $scope module EI $end
     $var wire 32 @ imm_extended [31:0] $end
     $var wire 32 6 imm_instruction [31:0] $end
     $var wire  3 1 imm_source [2:0] $end
    $upscope $end
    $scope module IM $end
     $var wire 32 6 instruction [31:0] $end
     $var wire 32 5 pc_in [31:0] $end
    $upscope $end
    $scope module PC $end
     $var wire  1 r clk $end
     $var wire 32 5 pc_current [31:0] $end
     $var wire 32 4 pc_next [31:0] $end
     $var wire  1 s rst_n $end
    $upscope $end
    $scope module RF $end
     $var wire  1 r clk $end
     $var wire  5 M rd_addr [4:0] $end
     $var wire  1 , reg_write_enable $end
     $var wire 32 N registers[0] [31:0] $end
     $var wire 32 X registers[10] [31:0] $end
     $var wire 32 Y registers[11] [31:0] $end
     $var wire 32 Z registers[12] [31:0] $end
     $var wire 32 [ registers[13] [31:0] $end
     $var wire 32 \ registers[14] [31:0] $end
     $var wire 32 ] registers[15] [31:0] $end
     $var wire 32 ^ registers[16] [31:0] $end
     $var wire 32 _ registers[17] [31:0] $end
     $var wire 32 ` registers[18] [31:0] $end
     $var wire 32 a registers[19] [31:0] $end
     $var wire 32 O registers[1] [31:0] $end
     $var wire 32 b registers[20] [31:0] $end
     $var wire 32 c registers[21] [31:0] $end
     $var wire 32 d registers[22] [31:0] $end
     $var wire 32 e registers[23] [31:0] $end
     $var wire 32 f registers[24] [31:0] $end
     $var wire 32 g registers[25] [31:0] $end
     $var wire 32 h registers[26] [31:0] $end
     $var wire 32 i registers[27] [31:0] $end
     $var wire 32 j registers[28] [31:0] $end
     $var wire 32 k registers[29] [31:0] $end
     $var wire 32 P registers[2] [31:0] $end
     $var wire 32 l registers[30] [31:0] $end
     $var wire 32 m registers[31] [31:0] $end
     $var wire 32 Q registers[3] [31:0] $end
     $var wire 32 R registers[4] [31:0] $end
     $var wire 32 S registers[5] [31:0] $end
     $var wire 32 T registers[6] [31:0] $end
     $var wire 32 U registers[7] [31:0] $end
     $var wire 32 V registers[8] [31:0] $end
     $var wire 32 W registers[9] [31:0] $end
     $var wire  5 K rs1_addr [4:0] $end
     $var wire 32 7 rs1_data [31:0] $end
     $var wire  5 L rs2_addr [4:0] $end
     $var wire 32 8 rs2_data [31:0] $end
     $var wire  1 s rst_n $end
     $var wire 32 u write_data [31:0] $end
     $scope module unnamedblk1 $end
      $var wire 32 n i [31:0] $end
     $upscope $end
    $upscope $end
   $upscope $end
   $scope module unnamedblk1 $end
    $var wire 32 v i [31:0] $end
   $upscope $end
   $scope module unnamedblk2 $end
    $var wire 32 w i [31:0] $end
   $upscope $end
   $scope module unnamedblk3 $end
    $var wire 32 & current_instruction [31:0] $end
    $var wire 32 ' current_rs1_data [31:0] $end
    $var wire 32 ( current_rs2_data [31:0] $end
   $upscope $end
  $upscope $end
  $scope module riscv_pkg $end
   $var wire 32 $! DMEM_SIZE [31:0] $end
   $var wire  3 .! FUNCT3_ADD [2:0] $end
   $var wire  3 .! FUNCT3_ADDI [2:0] $end
   $var wire  3 3! FUNCT3_AND [2:0] $end
   $var wire  3 3! FUNCT3_ANDI [2:0] $end
   $var wire  3 .! FUNCT3_BEQ [2:0] $end
   $var wire  3 1! FUNCT3_BGE [2:0] $end
   $var wire  3 3! FUNCT3_BGEU [2:0] $end
   $var wire  3 0! FUNCT3_BLT [2:0] $end
   $var wire  3 2! FUNCT3_BLTU [2:0] $end
   $var wire  3 /! FUNCT3_BNE [2:0] $end
   $var wire  3 .! FUNCT3_JALR [2:0] $end
   $var wire  3 .! FUNCT3_LB [2:0] $end
   $var wire  3 0! FUNCT3_LBU [2:0] $end
   $var wire  3 /! FUNCT3_LH [2:0] $end
   $var wire  3 1! FUNCT3_LHU [2:0] $end
   $var wire  3 4! FUNCT3_LW [2:0] $end
   $var wire  3 2! FUNCT3_OR [2:0] $end
   $var wire  3 2! FUNCT3_ORI [2:0] $end
   $var wire  3 .! FUNCT3_SB [2:0] $end
   $var wire  3 /! FUNCT3_SH [2:0] $end
   $var wire  3 /! FUNCT3_SLL [2:0] $end
   $var wire  3 /! FUNCT3_SLLI [2:0] $end
   $var wire  3 4! FUNCT3_SLT [2:0] $end
   $var wire  3 4! FUNCT3_SLTI [2:0] $end
   $var wire  3 5! FUNCT3_SLTIU [2:0] $end
   $var wire  3 5! FUNCT3_SLTU [2:0] $end
   $var wire  3 1! FUNCT3_SRA [2:0] $end
   $var wire  3 1! FUNCT3_SRAI [2:0] $end
   $var wire  3 1! FUNCT3_SRL [2:0] $end
   $var wire  3 1! FUNCT3_SRLI [2:0] $end
   $var wire  3 .! FUNCT3_SUB [2:0] $end
   $var wire  3 4! FUNCT3_SW [2:0] $end
   $var wire  3 0! FUNCT3_XOR [2:0] $end
   $var wire  3 0! FUNCT3_XORI [2:0] $end
   $var wire  7 6! FUNCT7_ADD [6:0] $end
   $var wire  7 6! FUNCT7_AND [6:0] $end
   $var wire  7 6! FUNCT7_OR [6:0] $end
   $var wire  7 6! FUNCT7_SLL [6:0] $end
   $var wire  7 6! FUNCT7_SLLI [6:0] $end
   $var wire  7 6! FUNCT7_SLT [6:0] $end
   $var wire  7 6! FUNCT7_SLTU [6:0] $end
   $var wire  7 7! FUNCT7_SRA [6:0] $end
   $var wire  7 7! FUNCT7_SRAI [6:0] $end
   $var wire  7 6! FUNCT7_SRL [6:0] $end
   $var wire  7 6! FUNCT7_SRLI [6:0] $end
   $var wire  7 7! FUNCT7_SUB [6:0] $end
   $var wire  7 6! FUNCT7_XOR [6:0] $end
   $var wire 32 $! MEM_SIZE [31:0] $end
   $var wire  7 &! OPCODE_AUIPC [6:0] $end
   $var wire  7 )! OPCODE_BRANCH [6:0] $end
   $var wire  7 ,! OPCODE_I_TYPE [6:0] $end
   $var wire  7 '! OPCODE_JAL [6:0] $end
   $var wire  7 (! OPCODE_JALR [6:0] $end
   $var wire  7 *! OPCODE_LOAD [6:0] $end
   $var wire  7 %! OPCODE_LUI [6:0] $end
   $var wire  7 -! OPCODE_R_TYPE [6:0] $end
   $var wire  7 +! OPCODE_STORE [6:0] $end
   $var wire 32 #! REG_ADDR_WIDTH [31:0] $end
   $var wire 32 "! XLEN [31:0] $end
  $upscope $end
 $upscope $end
$enddefinitions $end


#0
b00000000000000000000000000000000 #
b00000000000000000000000000000000 $
b00000000000000000000000000000000 %
b00000000000000000000000000000000 &
b00000000000000000000000000000000 '
b00000000000000000000000000000000 (
b0000 )
b10 *
b01 +
1,
0-
0.
b10 /
00
b011 1
b00 2
b00 3
b00000000000000000000000000000100 4
b00000000000000000000000000000000 5
b00010000000000000000111000110111 6
b00000000000000000000000000000000 7
b00000000000000000000000000000000 8
b00000000000000000000000000000000 9
b00010000000000000000000000000000 :
b00010000000000000000000000000000 ;
0<
0=
0>
0?
b00010000000000000000000000000000 @
b00010000000000000000000000000000 A
b000010000000000000000000000000000 B
b00000 D
b0110111 E
b000 F
b0001000 G
0H
b0000000000 I
b00 J
b00000 K
b00000 L
b11100 M
b00000000000000000000000000000000 N
b00000000000000000000000000000000 O
b00000000000000000000000000000000 P
b00000000000000000000000000000000 Q
b00000000000000000000000000000000 R
b00000000000000000000000000000000 S
b00000000000000000000000000000000 T
b00000000000000000000000000000000 U
b00000000000000000000000000000000 V
b00000000000000000000000000000000 W
b00000000000000000000000000000000 X
b00000000000000000000000000000000 Y
b00000000000000000000000000000000 Z
b00000000000000000000000000000000 [
b00000000000000000000000000000000 \
b00000000000000000000000000000000 ]
b00000000000000000000000000000000 ^
b00000000000000000000000000000000 _
b00000000000000000000000000000000 `
b00000000000000000000000000000000 a
b00000000000000000000000000000000 b
b00000000000000000000000000000000 c
b00000000000000000000000000000000 d
b00000000000000000000000000000000 e
b00000000000000000000000000000000 f
b00000000000000000000000000000000 g
b00000000000000000000000000000000 h
b00000000000000000000000000000000 i
b00000000000000000000000000000000 j
b00000000000000000000000000000000 k
b00000000000000000000000000000000 l
b00000000000000000000000000000000 m
b00000000000000000000000000000000 n
b00000000000000000000000000000000 o
b00000000 p
b0000000000000000 q
0r
0s
b10000000000000000000000000101100 t
b00010000000000000000000000000000 u
b00000000000000000000000000000000 v
b00000000000000000000000000000000 w
b00000000000000000000000000000000 x
b00000000000000000000000000000000 y
b00000000000000000000000000000000 z
b00000 {
b00000 |
b00000 }
b00000000000000000000000000000000 ~
b00000000000000000000000000000000 !!
b00000000000000000000000000100000 "!
b00000000000000000000000000000101 #!
b00000000000000000000010000000000 $!
b0110111 %!
b0010111 &!
b1101111 '!
b1100111 (!
b1100011 )!
b0000011 *!
b0100011 +!
b0010011 ,!
b0110011 -!
b000 .!
b001 /!
b100 0!
b101 1!
b110 2!
b111 3!
b010 4!
b011 5!
b0000000 6!
b0100000 7!
#3
1s
#5
b00010000000000000000111000110111 #
b00010000000000000000111000110111 &
b00 *
b000 1
b00000000000000000000000000001000 4
b00000000000000000000000000000100 5
b00110000000011100000111000010011 6
b00010000000000000000000000000000 7
b00010000000000000000000000000000 9
b00000000000000000000001100000000 :
b00010000000000000000001100000000 ;
b00000000000000000000001100000000 @
b00000000000000000000001100000100 A
b000010000000000000000001100000000 B
b0010011 E
b0011000 G
b0011000000 I
b11100 K
b00010000000000000000000000000000 j
1r
b00010000000000000000001100000000 u
#10
0r
#15
b00110000000011100000111000010011 #
b00010000000000000000000000000000 $
b00110000000011100000111000010011 &
b00010000000000000000000000000000 '
b10 *
b011 1
b00000000000000000000000000001100 4
b00000000000000000000000000001000 5
b00010000000000000000111100110111 6
b00000000000000000000000000000000 7
b00000000000000000000000000000000 9
b00010000000000000000000000000000 :
b00010000000000000000000000000000 ;
b00010000000000000000000000000000 @
b00010000000000000000000000001000 A
b000010000000000000000000000000000 B
b0110111 E
b0001000 G
b0000000000 I
b00000 K
b11110 M
b00010000000000000000001100000000 j
1r
b00010000000000000000000000000000 u
#20
0r
#25
b00010000000000000000111100110111 #
b00000000000000000000000000000000 $
b00010000000000000000111100110111 &
b00000000000000000000000000000000 '
b00 *
b000 1
b00000000000000000000000000010000 4
b00000000000000000000000000001100 5
b00100000000011110000111100010011 6
b00010000000000000000000000000000 7
b00010000000000000000000000000000 9
b00000000000000000000001000000000 :
b00010000000000000000001000000000 ;
b00000000000000000000001000000000 @
b00000000000000000000001000001100 A
b000010000000000000000001000000000 B
b0010011 E
b0010000 G
b0010000000 I
b11110 K
b00010000000000000000000000000000 l
1r
b00010000000000000000001000000000 u
#30
0r
#35
b00100000000011110000111100010011 #
b00010000000000000000000000000000 $
b00100000000011110000111100010011 &
b00010000000000000000000000000000 '
b10 *
b011 1
b00000000000000000000000000010100 4
b00000000000000000000000000010000 5
b10101011110011011110000010110111 6
b00000000000000000000000000000000 7
b00010000000000000000001100000000 8
b00000000000000000000000000000000 9
b10101011110011011110000000000000 :
b10101011110011011110000000000000 ;
1=
b10101011110011011110000000000000 @
b10101011110011011110000000010000 A
b010101011110011011110000000000000 B
b0110111 E
b110 F
b1010101 G
b0000000000 I
b11011 K
b11100 L
b00001 M
b00010000000000000000001000000000 l
1r
b10101011110011011110000000000000 u
#40
0r
#45
b10101011110011011110000010110111 #
b00000000000000000000000000000000 $
b00010000000000000000001100000000 %
b10101011110011011110000010110111 &
b00000000000000000000000000000000 '
b00010000000000000000001100000000 (
b00 *
0,
1.
b001 1
b00000000000000000000000000011000 4
b00000000000000000000000000010100 5
b00000000000111100010000000100011 6
b00010000000000000000001100000000 7
b10101011110011011110000000000000 8
b00010000000000000000001100000000 9
b00000000000000000000000000000000 :
b00010000000000000000001100000000 ;
0=
b00000000000000000000000000000000 @
b00000000000000000000000000010100 A
b000010000000000000000001100000000 B
b0100011 E
b010 F
b0000000 G
b0011000000 I
b11100 K
b00001 L
b00000 M
b10101011110011011110000000000000 O
1r
b00010000000000000000001100000000 u
#50
0r
#55
b00000000000111100010000000100011 #
b00010000000000000000001100000000 $
b10101011110011011110000000000000 %
b00000000000111100010000000100011 &
b00010000000000000000001100000000 '
b10101011110011011110000000000000 (
1,
0.
b000 1
b00000000000000000000000000011100 4
b00000000000000000000000000011000 5
b00000000010011100000111000010011 6
b00000000000000000000000000000000 8
b00000000000000000000000000000100 :
b00010000000000000000001100000100 ;
b00000000000000000000000000000100 @
b00000000000000000000000000011100 A
b000010000000000000000001100000100 B
b00100 D
b0010011 E
b000 F
b0011000001 I
b00100 L
b11100 M
1r
b00010000000000000000001100000100 u
#60
0r
#65
b00000000010011100000111000010011 #
b00000000000000000000000000000000 %
b00000000010011100000111000010011 &
b00000000000000000000000000000000 (
b1011 )
b01 *
b011 1
b00000000000000000000000000100000 4
b00000000000000000000000000011100 5
b00010010001101000101000010010111 6
b00000000000000000000000000000000 7
b00000000000000000000000000011100 9
b00010010001101000101000000000000 :
b00010010001101000101000000011100 ;
b00010010001101000101000000000000 @
b00010010001101000101000000011100 A
b000000000000000000000000000000000 B
b00000 D
b0010111 E
b101 F
b0001001 G
b0000000111 I
b01000 K
b00011 L
b00001 M
b00010000000000000000001100000100 j
1r
b00010010001101000101000000011100 u
#70
0r
#75
b00010010001101000101000010010111 #
b00000000000000000000000000000000 $
b00010010001101000101000010010111 &
b00000000000000000000000000000000 '
b0000 )
b00 *
0,
1.
b001 1
b00000000000000000000000000100100 4
b00000000000000000000000000100000 5
b00000000000111100010000000100011 6
b00010000000000000000001100000100 7
b00010010001101000101000000011100 8
b00010000000000000000001100000100 9
b00000000000000000000000000000000 :
b00010000000000000000001100000100 ;
b00000000000000000000000000000000 @
b00000000000000000000000000100000 A
b000010000000000000000001100000100 B
b0100011 E
b010 F
b0000000 G
b0011000001 I
b11100 K
b00001 L
b00000 M
b00010010001101000101000000011100 O
1r
b00010000000000000000001100000100 u
#80
0r
#85
b00000000000111100010000000100011 #
b00010000000000000000001100000100 $
b00010010001101000101000000011100 %
b00000000000111100010000000100011 &
b00010000000000000000001100000100 '
b00010010001101000101000000011100 (
1,
0.
b000 1
b00000000000000000000000000101000 4
b00000000000000000000000000100100 5
b00000000010011100000111000010011 6
b00000000000000000000000000000000 8
b00000000000000000000000000000100 :
b00010000000000000000001100001000 ;
b00000000000000000000000000000100 @
b00000000000000000000000000101000 A
b000010000000000000000001100001000 B
b00100 D
b0010011 E
b000 F
b0011000010 I
b00100 L
b11100 M
1r
b00010000000000000000001100001000 u
#90
0r
#95
b00000000010011100000111000010011 #
b00000000000000000000000000000000 %
b00000000010011100000111000010011 &
b00000000000000000000000000000000 (
b00000000000000000000000000101100 4
b00000000000000000000000000101000 5
b00000110010000000000000010010011 6
b00000000000000000000000000000000 7
b00000000000000000000000000000000 9
b00000000000000000000000001100100 :
b00000000000000000000000001100100 ;
b00000000000000000000000001100100 @
b00000000000000000000000010001100 A
b000000000000000000000000001100100 B
b0000011 G
b0000011001 I
b00000 K
b00001 M
b00010000000000000000001100001000 j
1r
b00000000000000000000000001100100 u
#100
0r
#105
b00000110010000000000000010010011 #
b00000000000000000000000000000000 $
b00000110010000000000000010010011 &
b00000000000000000000000000000000 '
b00000000000000000000000000110000 4
b00000000000000000000000000101100 5
b00000011001000001000000100010011 6
b00000000000000000000000001100100 7
b00000000000000000000000001100100 9
b00000000000000000000000000110010 :
b00000000000000000000000010010110 ;
b00000000000000000000000000110010 @
b00000000000000000000000001011110 A
b000000000000000000000000010010110 B
b10010 D
b0000001 G
b0000100101 I
b10 J
b00001 K
b10010 L
b00010 M
b00000000000000000000000001100100 O
1r
b00000000000000000000000010010110 u
#110
0r
#115
b00000011001000001000000100010011 #
b00000000000000000000000001100100 $
b00000011001000001000000100010011 &
b00000000000000000000000001100100 '
0,
1.
b001 1
b00000000000000000000000000110100 4
b00000000000000000000000000110000 5
b00000000001011100010000000100011 6
b00010000000000000000001100001000 7
b00000000000000000000000010010110 8
b00010000000000000000001100001000 9
b00000000000000000000000000000000 :
b00010000000000000000001100001000 ;
b00000000000000000000000000000000 @
b00000000000000000000000000110000 A
b000010000000000000000001100001000 B
b00000 D
b0100011 E
b010 F
b0000000 G
b0011000010 I
b00 J
b11100 K
b00010 L
b00000 M
b00000000000000000000000010010110 P
1r
b00010000000000000000001100001000 u
#120
0r
#125
b00000000001011100010000000100011 #
b00010000000000000000001100001000 $
b00000000000000000000000010010110 %
b00000000001011100010000000100011 &
b00010000000000000000001100001000 '
b00000000000000000000000010010110 (
1,
0.
b000 1
b00000000000000000000000000111000 4
b00000000000000000000000000110100 5
b00000000010011100000111000010011 6
b00000000000000000000000000000000 8
b00000000000000000000000000000100 :
b00010000000000000000001100001100 ;
b00000000000000000000000000000100 @
b00000000000000000000000000111000 A
b000010000000000000000001100001100 B
b00100 D
b0010011 E
b000 F
b0011000011 I
b00100 L
b11100 M
1r
b00010000000000000000001100001100 u
#130
0r
#135
b00000000010011100000111000010011 #
b00000000000000000000000000000000 %
b00000000010011100000111000010011 &
b00000000000000000000000000000000 (
b00000000000000000000000000111100 4
b00000000000000000000000000111000 5
b11111111011000000000000010010011 6
b00000000000000000000000000000000 7
b00000000000000000000000000000000 9
b11111111111111111111111111110110 :
b11111111111111111111111111110110 ;
1=
b11111111111111111111111111110110 @
b00000000000000000000000000101110 A
b011111111111111111111111111110110 B
b10110 D
b1111111 G
b1111111101 I
b10 J
b00000 K
b10110 L
b00001 M
b00010000000000000000001100001100 j
1r
b11111111111111111111111111110110 u
#140
0r
#145
b11111111011000000000000010010011 #
b00000000000000000000000000000000 $
b11111111011000000000000010010011 &
b00000000000000000000000000000000 '
b00000000000000000000000001000000 4
b00000000000000000000000000111100 5
b11111111101100001000000100010011 6
b11111111111111111111111111110110 7
b11111111111111111111111111110110 9
b11111111111111111111111111111011 :
b11111111111111111111111111110001 ;
1>
b11111111111111111111111111111011 @
b00000000000000000000000000110111 A
b111111111111111111111111111110001 B
b11011 D
b1111111100 I
b01 J
b00001 K
b11011 L
b00010 M
b11111111111111111111111111110110 O
1r
b11111111111111111111111111110001 u
#150
0r
#155
b11111111101100001000000100010011 #
b11111111111111111111111111110110 $
b11111111101100001000000100010011 &
b11111111111111111111111111110110 '
0,
1.
b001 1
b00000000000000000000000001000100 4
b00000000000000000000000001000000 5
b00000000001011100010000000100011 6
b00010000000000000000001100001100 7
b11111111111111111111111111110001 8
b00010000000000000000001100001100 9
b00000000000000000000000000000000 :
b00010000000000000000001100001100 ;
0=
0>
b00000000000000000000000000000000 @
b00000000000000000000000001000000 A
b000010000000000000000001100001100 B
b00000 D
b0100011 E
b010 F
b0000000 G
b0011000011 I
b00 J
b11100 K
b00010 L
b00000 M
b11111111111111111111111111110001 P
1r
b00010000000000000000001100001100 u
#160
0r
#165
b00000000001011100010000000100011 #
b00010000000000000000001100001100 $
b11111111111111111111111111110001 %
b00000000001011100010000000100011 &
b00010000000000000000001100001100 '
b11111111111111111111111111110001 (
1,
0.
b000 1
b00000000000000000000000001001000 4
b00000000000000000000000001000100 5
b00000000010011100000111000010011 6
b00000000000000000000000000000000 8
b00000000000000000000000000000100 :
b00010000000000000000001100010000 ;
b00000000000000000000000000000100 @
b00000000000000000000000001001000 A
b000010000000000000000001100010000 B
b00100 D
b0010011 E
b000 F
b0011000100 I
b00100 L
b11100 M
1r
b00010000000000000000001100010000 u
#170
0r
#175
b00000000010011100000111000010011 #
b00000000000000000000000000000000 %
b00000000010011100000111000010011 &
b00000000000000000000000000000000 (
b00000000000000000000000001001100 4
b00000000000000000000000001001000 5
b01111111111100000000000010010011 6
b00000000000000000000000000000000 7
b00000000000000000000000000000000 9
b00000000000000000000011111111111 :
b00000000000000000000011111111111 ;
b00000000000000000000011111111111 @
b00000000000000000000100001000111 A
b000000000000000000000011111111111 B
b11111 D
b0111111 G
b0111111111 I
b11 J
b00000 K
b11111 L
b00001 M
b00010000000000000000001100010000 j
1r
b00000000000000000000011111111111 u
#180
0r
#185
b01111111111100000000000010010011 #
b00000000000000000000000000000000 $
b01111111111100000000000010010011 &
b00000000000000000000000000000000 '
0,
1.
b001 1
b00000000000000000000000001010000 4
b00000000000000000000000001001100 5
b00000000000111100010000000100011 6
b00010000000000000000001100010000 7
b00000000000000000000011111111111 8
b00010000000000000000001100010000 9
b00000000000000000000000000000000 :
b00010000000000000000001100010000 ;
b00000000000000000000000000000000 @
b00000000000000000000000001001100 A
b000010000000000000000001100010000 B
b00000 D
b0100011 E
b010 F
b0000000 G
b0011000100 I
b00 J
b11100 K
b00001 L
b00000 M
b00000000000000000000011111111111 O
1r
b00010000000000000000001100010000 u
#190
0r
#195
b00000000000111100010000000100011 #
b00010000000000000000001100010000 $
b00000000000000000000011111111111 %
b00000000000111100010000000100011 &
b00010000000000000000001100010000 '
b00000000000000000000011111111111 (
1,
0.
b000 1
b00000000000000000000000001010100 4
b00000000000000000000000001010000 5
b00000000010011100000111000010011 6
b00000000000000000000000000000000 8
b00000000000000000000000000000100 :
b00010000000000000000001100010100 ;
b00000000000000000000000000000100 @
b00000000000000000000000001010100 A
b000010000000000000000001100010100 B
b00100 D
b0010011 E
b000 F
b0011000101 I
b00100 L
b11100 M
1r
b00010000000000000000001100010100 u
#200
0r
#205
b00000000010011100000111000010011 #
b00000000000000000000000000000000 %
b00000000010011100000111000010011 &
b00000000000000000000000000000000 (
b00000000000000000000000001011000 4
b00000000000000000000000001010100 5
b10000000000000000000000010010011 6
b00000000000000000000000000000000 7
b00000000000000000000000000000000 9
b11111111111111111111100000000000 :
b11111111111111111111100000000000 ;
1=
b11111111111111111111100000000000 @
b11111111111111111111100001010100 A
b011111111111111111111100000000000 B
b00000 D
b1000000 G
b1000000000 I
b00000 K
b00000 L
b00001 M
b00010000000000000000001100010100 j
1r
b11111111111111111111100000000000 u
#210
0r
#215
b10000000000000000000000010010011 #
b00000000000000000000000000000000 $
b10000000000000000000000010010011 &
b00000000000000000000000000000000 '
0,
1.
b001 1
b00000000000000000000000001011100 4
b00000000000000000000000001011000 5
b00000000000111100010000000100011 6
b00010000000000000000001100010100 7
b11111111111111111111100000000000 8
b00010000000000000000001100010100 9
b00000000000000000000000000000000 :
b00010000000000000000001100010100 ;
0=
b00000000000000000000000000000000 @
b00000000000000000000000001011000 A
b000010000000000000000001100010100 B
b0100011 E
b010 F
b0000000 G
b0011000101 I
b11100 K
b00001 L
b00000 M
b11111111111111111111100000000000 O
1r
b00010000000000000000001100010100 u
#220
0r
#225
b00000000000111100010000000100011 #
b00010000000000000000001100010100 $
b11111111111111111111100000000000 %
b00000000000111100010000000100011 &
b00010000000000000000001100010100 '
b11111111111111111111100000000000 (
1,
0.
b000 1
b00000000000000000000000001100000 4
b00000000000000000000000001011100 5
b00000000010011100000111000010011 6
b00000000000000000000000000000000 8
b00000000000000000000000000000100 :
b00010000000000000000001100011000 ;
b00000000000000000000000000000100 @
b00000000000000000000000001100000 A
b000010000000000000000001100011000 B
b00100 D
b0010011 E
b000 F
b0011000110 I
b00100 L
b11100 M
1r
b00010000000000000000001100011000 u
#230
0r
#235
b00000000010011100000111000010011 #
b00000000000000000000000000000000 %
b00000000010011100000111000010011 &
b00000000000000000000000000000000 (
b00000000000000000000000001100100 4
b00000000000000000000000001100000 5
b00000000101000000000000010010011 6
b00000000000000000000000000000000 7
b00000000000000000000000000000000 9
b00000000000000000000000000001010 :
b00000000000000000000000000001010 ;
b00000000000000000000000000001010 @
b00000000000000000000000001101010 A
b000000000000000000000000000001010 B
b01010 D
b0000000010 I
b10 J
b00000 K
b01010 L
b00001 M
b00010000000000000000001100011000 j
1r
b00000000000000000000000000001010 u
#240
0r
#245
b00000000101000000000000010010011 #
b00000000000000000000000000000000 $
b00000000101000000000000010010011 &
b00000000000000000000000000000000 '
b1000 )
b00000000000000000000000001101000 4
b00000000000000000000000001100100 5
b00000001010000001010000100010011 6
b00000000000000000000000000001010 7
b00000000000000000000000000001010 9
b00000000000000000000000000010100 :
b00000000000000000000000000000001 ;
b00000000000000000000000000010100 @
b00000000000000000000000001111000 A
b000000000000000000000000000000000 B
b10100 D
b010 F
b0000000000 I
b01 J
b00001 K
b10100 L
b00010 M
b00000000000000000000000000001010 O
1r
b00000000000000000000000000000001 u
#250
0r
#255
b00000001010000001010000100010011 #
b00000000000000000000000000001010 $
b00000001010000001010000100010011 &
b00000000000000000000000000001010 '
b0000 )
0,
1.
b001 1
b00000000000000000000000001101100 4
b00000000000000000000000001101000 5
b00000000001011100010000000100011 6
b00010000000000000000001100011000 7
b00000000000000000000000000000001 8
b00010000000000000000001100011000 9
b00000000000000000000000000000000 :
b00010000000000000000001100011000 ;
b00000000000000000000000000000000 @
b00000000000000000000000001101000 A
b000010000000000000000001100011000 B
b00000 D
b0100011 E
b0011000110 I
b00 J
b11100 K
b00010 L
b00000 M
b00000000000000000000000000000001 P
1r
b00010000000000000000001100011000 u
#260
0r
#265
b00000000001011100010000000100011 #
b00010000000000000000001100011000 $
b00000000000000000000000000000001 %
b00000000001011100010000000100011 &
b00010000000000000000001100011000 '
b00000000000000000000000000000001 (
1,
0.
b000 1
b00000000000000000000000001110000 4
b00000000000000000000000001101100 5
b00000000010011100000111000010011 6
b00000000000000000000000000000000 8
b00000000000000000000000000000100 :
b00010000000000000000001100011100 ;
b00000000000000000000000000000100 @
b00000000000000000000000001110000 A
b000010000000000000000001100011100 B
b00100 D
b0010011 E
b000 F
b0011000111 I
b00100 L
b11100 M
1r
b00010000000000000000001100011100 u
#270
0r
#275
b00000000010011100000111000010011 #
b00000000000000000000000000000000 %
b00000000010011100000111000010011 &
b00000000000000000000000000000000 (
b1000 )
b00000000000000000000000001110100 4
b00000000000000000000000001110000 5
b00000000101000001010000100010011 6
b00000000000000000000000000001010 7
b00000000000000000000000000001010 9
b00000000000000000000000000001010 :
b00000000000000000000000000000000 ;
1<
b00000000000000000000000000001010 @
b00000000000000000000000001111010 A
b000000000000000000000000000000000 B
b01010 D
b010 F
b0000000000 I
b00001 K
b01010 L
b00010 M
b00010000000000000000001100011100 j
1r
b00000000000000000000000000000000 u
#280
0r
