dumb.vcd
$version Generated by VerilatedVcd $end
$timescale 1ps $end

 $scope module TOP $end
  $scope module data_memory_tb $end
   $var wire  1 3 clk $end
   $var wire 32 # data_addr [31:0] $end
   $var wire 32 4 data_read_data [31:0] $end
   $var wire 32 $ data_write_data [31:0] $end
   $var wire 32 , error_count [31:0] $end
   $var wire 32 ) exp_data_read_data [31:0] $end
   $var wire 32 * file [31:0] $end
   $var wire 32 - line [31:0] $end
   $var wire 32 . log_file [31:0] $end
   $var wire  1 % mem_read $end
   $var wire  2 ' mem_size [1:0] $end
   $var wire  1 & mem_write $end
   $var wire 32 + read [31:0] $end
   $var wire  1 ( unsigned_load $end
   $scope module dut $end
    $var wire  2 0 byte_offset [1:0] $end
    $var wire  8 5 byte_val [7:0] $end
    $var wire  1 3 clk $end
    $var wire 32 # data_addr [31:0] $end
    $var wire 32 4 data_read_data [31:0] $end
    $var wire 32 $ data_write_data [31:0] $end
    $var wire 16 6 half_val [15:0] $end
    $var wire  1 % mem_read $end
    $var wire  2 ' mem_size [1:0] $end
    $var wire  1 & mem_write $end
    $var wire  1 ( unsigned_load $end
    $var wire 10 / word_index [9:0] $end
   $upscope $end
   $scope module unnamedblk1 $end
    $var wire 32 1 i [31:0] $end
   $upscope $end
   $scope module unnamedblk2 $end
    $var wire 32 2 i [31:0] $end
   $upscope $end
  $upscope $end
  $scope module riscv_pkg $end
   $var wire 32 9 DMEM_SIZE [31:0] $end
   $var wire  3 C FUNCT3_ADD [2:0] $end
   $var wire  3 C FUNCT3_ADDI [2:0] $end
   $var wire  3 H FUNCT3_AND [2:0] $end
   $var wire  3 H FUNCT3_ANDI [2:0] $end
   $var wire  3 C FUNCT3_BEQ [2:0] $end
   $var wire  3 F FUNCT3_BGE [2:0] $end
   $var wire  3 H FUNCT3_BGEU [2:0] $end
   $var wire  3 E FUNCT3_BLT [2:0] $end
   $var wire  3 G FUNCT3_BLTU [2:0] $end
   $var wire  3 D FUNCT3_BNE [2:0] $end
   $var wire  3 C FUNCT3_JALR [2:0] $end
   $var wire  3 C FUNCT3_LB [2:0] $end
   $var wire  3 E FUNCT3_LBU [2:0] $end
   $var wire  3 D FUNCT3_LH [2:0] $end
   $var wire  3 F FUNCT3_LHU [2:0] $end
   $var wire  3 I FUNCT3_LW [2:0] $end
   $var wire  3 G FUNCT3_OR [2:0] $end
   $var wire  3 G FUNCT3_ORI [2:0] $end
   $var wire  3 C FUNCT3_SB [2:0] $end
   $var wire  3 D FUNCT3_SH [2:0] $end
   $var wire  3 D FUNCT3_SLL [2:0] $end
   $var wire  3 D FUNCT3_SLLI [2:0] $end
   $var wire  3 I FUNCT3_SLT [2:0] $end
   $var wire  3 I FUNCT3_SLTI [2:0] $end
   $var wire  3 J FUNCT3_SLTIU [2:0] $end
   $var wire  3 J FUNCT3_SLTU [2:0] $end
   $var wire  3 F FUNCT3_SRA [2:0] $end
   $var wire  3 F FUNCT3_SRAI [2:0] $end
   $var wire  3 F FUNCT3_SRL [2:0] $end
   $var wire  3 F FUNCT3_SRLI [2:0] $end
   $var wire  3 C FUNCT3_SUB [2:0] $end
   $var wire  3 I FUNCT3_SW [2:0] $end
   $var wire  3 E FUNCT3_XOR [2:0] $end
   $var wire  3 E FUNCT3_XORI [2:0] $end
   $var wire  7 K FUNCT7_ADD [6:0] $end
   $var wire  7 K FUNCT7_AND [6:0] $end
   $var wire  7 K FUNCT7_OR [6:0] $end
   $var wire  7 K FUNCT7_SLL [6:0] $end
   $var wire  7 K FUNCT7_SLLI [6:0] $end
   $var wire  7 K FUNCT7_SLT [6:0] $end
   $var wire  7 K FUNCT7_SLTU [6:0] $end
   $var wire  7 L FUNCT7_SRA [6:0] $end
   $var wire  7 L FUNCT7_SRAI [6:0] $end
   $var wire  7 K FUNCT7_SRL [6:0] $end
   $var wire  7 K FUNCT7_SRLI [6:0] $end
   $var wire  7 L FUNCT7_SUB [6:0] $end
   $var wire  7 K FUNCT7_XOR [6:0] $end
   $var wire 32 9 MEM_SIZE [31:0] $end
   $var wire  7 ; OPCODE_AUIPC [6:0] $end
   $var wire  7 > OPCODE_BRANCH [6:0] $end
   $var wire  7 A OPCODE_I_TYPE [6:0] $end
   $var wire  7 < OPCODE_JAL [6:0] $end
   $var wire  7 = OPCODE_JALR [6:0] $end
   $var wire  7 ? OPCODE_LOAD [6:0] $end
   $var wire  7 : OPCODE_LUI [6:0] $end
   $var wire  7 B OPCODE_R_TYPE [6:0] $end
   $var wire  7 @ OPCODE_STORE [6:0] $end
   $var wire 32 8 REG_ADDR_WIDTH [31:0] $end
   $var wire 32 7 XLEN [31:0] $end
  $upscope $end
 $upscope $end
$enddefinitions $end


#0
b00000000000000000000000000000000 #
b00000000000000000000000000000000 $
0%
0&
b00 '
0(
b00000000000000000000000000000000 )
b00000000000000000000000000000000 *
b00000000000000000000000000000000 +
b00000000000000000000000000000000 ,
b00000000000000000000000000000001 -
b00000000000000000000000000000000 .
b0000000000 /
b00 0
b00000000000000000000000000000000 1
b00000000000000000000000000000000 2
03
b00000000000000000000000000000000 4
b00000000 5
b0000000000000000 6
b00000000000000000000000000100000 7
b00000000000000000000000000000101 8
b00000000000000000000010000000000 9
b0110111 :
b0010111 ;
b1101111 <
b1100111 =
b1100011 >
b0000011 ?
b0100011 @
b0010011 A
b0110011 B
b000 C
b001 D
b100 E
b101 F
b110 G
b111 H
b010 I
b011 J
b0000000 K
b0100000 L
#5
13
#7
b00000000000000000000000000000011 #
b00000000000000000000000010011011 $
1&
b10000000000000000000000000101100 *
b00000000000000000000000000000100 +
b10000000000000000000000000101011 .
b11 0
#10
03
#15
13
#17
b00000000000000000000000000000101 #
b00000000000000000000000010010010 $
1(
b00000000000000000000000000000010 -
b0000000001 /
b01 0
b00000000000000000000000000000001 1
#20
03
#25
13
#27
b00000000000000000000000000001011 #
b00000000000000000000000000110000 $
0(
b00000000000000000000000000000011 -
b0000000010 /
b11 0
b00000000000000000000000000000010 1
#30
03
#35
13
#37
b00000000000000000000000000001100 #
b00000000000000000000000011110000 $
1(
b00000000000000000000000000000100 -
b0000000011 /
b00 0
b00000000000000000000000000000011 1
#40
03
#45
13
#47
b00000000000000000000000000010001 #
b00000000000000000000000010101010 $
0(
b00000000000000000000000000000101 -
b0000000100 /
b01 0
b00000000000000000000000000000100 1
#50
03
#55
13
#57
b00000000000000000000000000010100 #
b01110000111111011100101001110000 $
b10 '
b00000000000000000000000000000110 -
b0000000101 /
b00 0
b00000000000000000000000000000101 1
#60
03
#65
13
#67
b00000000000000000000000000011010 #
b00000000000000000011100100101010 $
b01 '
1(
b00000000000000000000000000000111 -
b0000000110 /
b10 0
b00000000000000000000000000000110 1
#70
03
#75
13
#77
b00000000000000000000000000011100 #
b00000000000000000000100110011000 $
b00000000000000000000000000001000 -
b0000000111 /
b00 0
b00000000000000000000000000000111 1
#80
03
#85
13
#87
b00000000000000000000000000100001 #
b00000000000000000000000010001011 $
b00 '
0(
b00000000000000000000000000001001 -
b0000001000 /
b01 0
b00000000000000000000000000001000 1
#90
03
#95
13
#97
b00000000000000000000000000100100 #
b00001100001111001111100001000001 $
b10 '
b00000000000000000000000000001010 -
b0000001001 /
b00 0
b00000000000000000000000000001001 1
#100
03
#105
13
#107
b00000000000000000000000000101000 #
b00011000111011010100001011000100 $
b00000000000000000000000000001011 -
b0000001010 /
b00000000000000000000000000001010 1
#110
03
#115
13
#117
b00000000000000000000000000101110 #
b00000000000000000000000011000000 $
b00 '
1(
b00000000000000000000000000001100 -
b0000001011 /
b10 0
b00000000000000000000000000001011 1
#120
03
#125
13
#127
b00000000000000000000000000110010 #
b00000000000000000000000010001010 $
0(
b00000000000000000000000000001101 -
b0000001100 /
b00000000000000000000000000001100 1
#130
03
#135
13
#137
b00000000000000000000000000110100 #
b11001111100100011010111010000001 $
b10 '
1(
b00000000000000000000000000001110 -
b0000001101 /
b00 0
b00000000000000000000000000001101 1
#140
03
#145
13
#147
b00000000000000000000000000111000 #
b00110001110110111001001011111100 $
0(
b00000000000000000000000000001111 -
b0000001110 /
b00000000000000000000000000001110 1
#150
03
#155
13
#157
b00000000000000000000000000111100 #
b11000000011100110000011011001111 $
b00000000000000000000000000010000 -
b0000001111 /
b00000000000000000000000000001111 1
#160
03
#165
13
#167
b00000000000000000000000001000011 #
b00000000000000000000000011110011 $
b00 '
b00000000000000000000000000010001 -
b0000010000 /
b11 0
b00000000000000000000000000010000 1
#170
03
#175
13
#177
b00000000000000000000000001000100 #
b01111000001000100101100000001101 $
b10 '
b00000000000000000000000000010010 -
b0000010001 /
b00 0
b00000000000000000000000000010001 1
#180
03
#185
13
#187
b00000000000000000000000001001000 #
b11110110110010000110010000100101 $
b00000000000000000000000000010011 -
b0000010010 /
b00000000000000000000000000010010 1
#190
03
#195
13
#197
b00000000000000000000000001001100 #
b00000000000000001011011100110000 $
b01 '
1(
b00000000000000000000000000010100 -
b0000010011 /
b00000000000000000000000000010011 1
#200
03
#205
13
#207
b00000000000000000000000001010000 #
b01000010101000001000000101000111 $
b10 '
0(
b00000000000000000000000000010101 -
b0000010100 /
b00000000000000000000000000010100 1
#210
03
#215
13
#217
b00000000000000000000000001010101 #
b00000000000000000000000010101000 $
b00 '
b00000000000000000000000000010110 -
b0000010101 /
b01 0
b00000000000000000000000000010101 1
#220
03
#225
13
#227
b00000000000000000000000001011000 #
b11100110111101101010101010010010 $
b10 '
b00000000000000000000000000010111 -
b0000010110 /
b00 0
b00000000000000000000000000010110 1
#230
03
#235
13
#237
b00000000000000000000000001011100 #
b01100110101010000100111000011000 $
b00000000000000000000000000011000 -
b0000010111 /
b00000000000000000000000000010111 1
#240
03
#245
13
#247
b00000000000000000000000001100000 #
b01000001100101101111110111110110 $
b00000000000000000000000000011001 -
b0000011000 /
b00000000000000000000000000011000 1
#250
03
#255
13
#257
b00000000000000000000000001100100 #
b10111111010001111101001010110100 $
1(
b00000000000000000000000000011010 -
b0000011001 /
b00000000000000000000000000011001 1
#260
03
#265
13
#267
b00000000000000000000000001101010 #
b00000000000000000011000011010011 $
b01 '
b00000000000000000000000000011011 -
b0000011010 /
b10 0
b00000000000000000000000000011010 1
#270
03
#275
13
#277
b00000000000000000000000001101111 #
b00000000000000000000000000000001 $
b00 '
0(
b00000000000000000000000000011100 -
b0000011011 /
b11 0
b00000000000000000000000000011011 1
#280
03
#285
13
#287
b00000000000000000000000001110000 #
b00000000000000000000000011111010 $
1(
b00000000000000000000000000011101 -
b0000011100 /
b00 0
b00000000000000000000000000011100 1
#290
03
#295
13
#297
b00000000000000000000000001110110 #
b00000000000000000000111010011101 $
b01 '
b00000000000000000000000000011110 -
b0000011101 /
b10 0
b00000000000000000000000000011101 1
#300
03
#305
13
#307
b00000000000000000000000001111000 #
b00101110011001111010110011100001 $
b10 '
b00000000000000000000000000011111 -
b0000011110 /
b00 0
b00000000000000000000000000011110 1
#310
03
#315
13
#317
b00000000000000000000000001111100 #
b00000000000000001011000111001000 $
b01 '
0(
b00000000000000000000000000100000 -
b0000011111 /
b00000000000000000000000000011111 1
#320
03
#325
13
#327
b00000000000000000000000010000000 #
b10011101010010010000011001000110 $
b10 '
1(
b00000000000000000000000000100001 -
b0000100000 /
b00000000000000000000000000100000 1
#330
03
#335
13
#337
b00000000000000000000000010000100 #
b00001110101101000001001100011100 $
0(
b00000000000000000000000000100010 -
b0000100001 /
b00000000000000000000000000100001 1
#340
03
#345
13
#347
b00000000000000000000000010001000 #
b00000000000000000000000010000111 $
b00 '
b00000000000000000000000000100011 -
b0000100010 /
b00000000000000000000000000100010 1
#350
03
#355
13
#357
b00000000000000000000000010001110 #
b00000000000000001000100001100011 $
b01 '
b00000000000000000000000000100100 -
b0000100011 /
b10 0
b00000000000000000000000000100011 1
#360
03
#365
13
#367
b00000000000000000000000010010000 #
b00010001100010001001011010101010 $
b10 '
b00000000000000000000000000100101 -
b0000100100 /
b00 0
b00000000000000000000000000100100 1
#370
03
#375
13
#377
b00000000000000000000000010010100 #
b00110100000011101000100001111011 $
1(
b00000000000000000000000000100110 -
b0000100101 /
b00000000000000000000000000100101 1
#380
03
#385
13
#387
b00000000000000000000000010011000 #
b11011101010001001000011001100110 $
b00000000000000000000000000100111 -
b0000100110 /
b00000000000000000000000000100110 1
#390
03
#395
13
#397
b00000000000000000000000010011110 #
b00000000000000000000000010001110 $
b00 '
b00000000000000000000000000101000 -
b0000100111 /
b10 0
b00000000000000000000000000100111 1
#400
03
#405
13
#407
b00000000000000000000000010100001 #
b00000000000000000000000010011001 $
b00000000000000000000000000101001 -
b0000101000 /
b01 0
b00000000000000000000000000101000 1
#410
03
#415
13
#417
b00000000000000000000000010100110 #
b00000000000000000000000001101101 $
0(
b00000000000000000000000000101010 -
b0000101001 /
b10 0
b00000000000000000000000000101001 1
#420
03
#425
13
#427
b00000000000000000000000010101000 #
b00000000000000001001010111111111 $
b01 '
1(
b00000000000000000000000000101011 -
b0000101010 /
b00 0
b00000000000000000000000000101010 1
#430
03
#435
13
#437
b00000000000000000000000010101111 #
b00000000000000000000000001111001 $
b00 '
b00000000000000000000000000101100 -
b0000101011 /
b11 0
b00000000000000000000000000101011 1
#440
03
#445
13
#447
b00000000000000000000000010110000 #
b10101010100111110011010011111111 $
b10 '
b00000000000000000000000000101101 -
b0000101100 /
b00 0
b00000000000000000000000000101100 1
#450
03
#455
13
#457
b00000000000000000000000010110100 #
b00000000000000000000000010010010 $
b00 '
b00000000000000000000000000101110 -
b0000101101 /
b00000000000000000000000000101101 1
#460
03
#465
13
#467
b00000000000000000000000010111000 #
b00000000000000000000000000011101 $
b00000000000000000000000000101111 -
b0000101110 /
b00000000000000000000000000101110 1
#470
03
#475
13
#477
b00000000000000000000000010111100 #
b00000000000000000011011001110000 $
b01 '
b00000000000000000000000000110000 -
b0000101111 /
b00000000000000000000000000101111 1
#480
03
#485
13
#487
b00000000000000000000000011000001 #
b00000000000000000000000010110100 $
b00 '
0(
b00000000000000000000000000110001 -
b0000110000 /
b01 0
b00000000000000000000000000110000 1
#490
03
#495
13
#497
b00000000000000000000000011000100 #
b00000000000000000101000000011010 $
b01 '
1(
b00000000000000000000000000110010 -
b0000110001 /
b00 0
b00000000000000000000000000110001 1
#500
03
#505
13
#507
b00000000000000000000000011001010 #
b00000000000000001010010010111011 $
b00000000000000000000000000110011 -
b0000110010 /
b10 0
b00000000000000000000000000110010 1
#510
03
#515
13
#517
b00000000000000000000000011001100 #
b11000011111101111000100000101101 $
b10 '
0(
b00000000000000000000000000110100 -
b0000110011 /
b00 0
b00000000000000000000000000110011 1
#520
03
#525
13
#527
b00000000000000000000000011010000 #
b00000000000000000000000011110101 $
b00 '
b00000000000000000000000000110101 -
b0000110100 /
b00000000000000000000000000110100 1
#530
03
#535
13
#537
b00000000000000000000000011010100 #
b00010011101000001101000010100011 $
b10 '
b00000000000000000000000000110110 -
b0000110101 /
b00000000000000000000000000110101 1
#540
03
#545
13
#547
b00000000000000000000000011011011 #
b00000000000000000000000000101000 $
b00 '
1(
b00000000000000000000000000110111 -
b0000110110 /
b11 0
b00000000000000000000000000110110 1
#550
03
#555
13
#557
b00000000000000000000000011011110 #
b00000000000000000000000000110010 $
b00000000000000000000000000111000 -
b0000110111 /
b10 0
b00000000000000000000000000110111 1
#560
03
#565
13
#567
b00000000000000000000000011100010 #
b00000000000000000001100010010000 $
b01 '
b00000000000000000000000000111001 -
b0000111000 /
b00000000000000000000000000111000 1
#570
03
#575
13
#577
b00000000000000000000000011100100 #
b01011101010100011100011010001010 $
b10 '
0(
b00000000000000000000000000111010 -
b0000111001 /
b00 0
b00000000000000000000000000111001 1
#580
03
#585
13
#587
b00000000000000000000000011101010 #
b00000000000000001000001101110110 $
b01 '
1(
b00000000000000000000000000111011 -
b0000111010 /
b10 0
b00000000000000000000000000111010 1
#590
03
#595
13
#597
b00000000000000000000000011101100 #
b00000000000000001001001000001110 $
b00000000000000000000000000111100 -
b0000111011 /
b00 0
b00000000000000000000000000111011 1
#600
03
#605
13
#607
b00000000000000000000000011110010 #
b00000000000000000000000001000010 $
b00 '
b00000000000000000000000000111101 -
b0000111100 /
b10 0
b00000000000000000000000000111100 1
#610
03
#615
13
#617
b00000000000000000000000011110100 #
b00011100000111001011001000100110 $
b10 '
b00000000000000000000000000111110 -
b0000111101 /
b00 0
b00000000000000000000000000111101 1
#620
03
#625
13
#627
b00000000000000000000000011111000 #
b00000001001010101000100011010111 $
0(
b00000000000000000000000000111111 -
b0000111110 /
b00000000000000000000000000111110 1
#630
03
#635
13
#637
b00000000000000000000000011111100 #
b00000000000000000011101000100011 $
b01 '
1(
b00000000000000000000000001000000 -
b0000111111 /
b00000000000000000000000000111111 1
#640
03
#645
13
#647
b00000000000000000000000100000000 #
b00000000000000000000000010111011 $
b00 '
b00000000000000000000000001000001 -
b0001000000 /
b00000000000000000000000001000000 1
#650
03
#655
13
#657
b00000000000000000000000100000100 #
b01100001101000101000110000110011 $
b10 '
0(
b00000000000000000000000001000010 -
b0001000001 /
b00000000000000000000000001000001 1
#660
03
#665
13
#667
b00000000000000000000000100001000 #
b00000000000000000111010100001100 $
b01 '
1(
b00000000000000000000000001000011 -
b0001000010 /
b00000000000000000000000001000010 1
#670
03
#675
13
#677
b00000000000000000000000100001100 #
b00101001111111010111000010010111 $
b10 '
b00000000000000000000000001000100 -
b0001000011 /
b00000000000000000000000001000011 1
#680
03
#685
13
#687
b00000000000000000000000100010000 #
b11110010001101011010010010000100 $
b00000000000000000000000001000101 -
b0001000100 /
b00000000000000000000000001000100 1
#690
03
#695
13
#697
b00000000000000000000000100010110 #
b00000000000000000000011001100111 $
b01 '
b00000000000000000000000001000110 -
b0001000101 /
b10 0
b00000000000000000000000001000101 1
#700
03
#705
13
#707
b00000000000000000000000100011010 #
b00000000000000001011111110001100 $
b00000000000000000000000001000111 -
b0001000110 /
b00000000000000000000000001000110 1
#710
03
#715
13
#717
b00000000000000000000000100011111 #
b00000000000000000000000010110110 $
b00 '
0(
b00000000000000000000000001001000 -
b0001000111 /
b11 0
b00000000000000000000000001000111 1
#720
03
#725
13
#727
b00000000000000000000000100100011 #
b00000000000000000000000011011011 $
b00000000000000000000000001001001 -
b0001001000 /
b00000000000000000000000001001000 1
#730
03
#735
13
#737
b00000000000000000000000100100100 #
b10000001100100011110011011010111 $
b10 '
1(
b00000000000000000000000001001010 -
b0001001001 /
b00 0
b00000000000000000000000001001001 1
#740
03
#745
13
#747
b00000000000000000000000100101000 #
b01101001100001110010000000100000 $
b00000000000000000000000001001011 -
b0001001010 /
b00000000000000000000000001001010 1
#750
03
#755
13
#757
b00000000000000000000000100101100 #
b10001100001011100011011111000001 $
0(
b00000000000000000000000001001100 -
b0001001011 /
b00000000000000000000000001001011 1
#760
03
#765
13
#767
b00000000000000000000000100110011 #
b00000000000000000000000001110010 $
b00 '
1(
b00000000000000000000000001001101 -
b0001001100 /
b11 0
b00000000000000000000000001001100 1
#770
03
#775
13
#777
b00000000000000000000000100110100 #
b00010000000011101110000111001101 $
b10 '
b00000000000000000000000001001110 -
b0001001101 /
b00 0
b00000000000000000000000001001101 1
#780
03
#785
13
#787
b00000000000000000000000100111010 #
b00000000000000000110011110011000 $
b01 '
b00000000000000000000000001001111 -
b0001001110 /
b10 0
b00000000000000000000000001001110 1
#790
03
#795
13
#797
b00000000000000000000000100111110 #
b00000000000000000000000000011111 $
b00 '
b00000000000000000000000001010000 -
b0001001111 /
b00000000000000000000000001001111 1
#800
03
#805
13
#807
b00000000000000000000000101000000 #
b00011010111100011011001000111000 $
b10 '
0(
b00000000000000000000000001010001 -
b0001010000 /
b00 0
b00000000000000000000000001010000 1
#810
03
#815
13
#817
b00000000000000000000000101000100 #
b11011011111110111011101101111100 $
1(
b00000000000000000000000001010010 -
b0001010001 /
b00000000000000000000000001010001 1
#820
03
#825
13
#827
b00000000000000000000000101001000 #
b01111000011001100100111001010111 $
0(
b00000000000000000000000001010011 -
b0001010010 /
b00000000000000000000000001010010 1
#830
03
#835
13
#837
b00000000000000000000000101001100 #
b11110111100110100100001110100111 $
1(
b00000000000000000000000001010100 -
b0001010011 /
b00000000000000000000000001010011 1
#840
03
#845
13
#847
b00000000000000000000000101010000 #
b00000000000000000000000010011000 $
b00 '
b00000000000000000000000001010101 -
b0001010100 /
b00000000000000000000000001010100 1
#850
03
#855
13
#857
b00000000000000000000000101010110 #
b00000000000000000000000011100010 $
0(
b00000000000000000000000001010110 -
b0001010101 /
b10 0
b00000000000000000000000001010101 1
#860
03
#865
13
#867
b00000000000000000000000101011010 #
b00000000000000001000100000010011 $
b01 '
1(
b00000000000000000000000001010111 -
b0001010110 /
b00000000000000000000000001010110 1
#870
03
#875
13
#877
b00000000000000000000000101011111 #
b00000000000000000000000000000011 $
b00 '
b00000000000000000000000001011000 -
b0001010111 /
b11 0
b00000000000000000000000001010111 1
#880
03
#885
13
#887
b00000000000000000000000101100010 #
b00000000000000001101001000001110 $
b01 '
0(
b00000000000000000000000001011001 -
b0001011000 /
b10 0
b00000000000000000000000001011000 1
#890
03
#895
13
#897
b00000000000000000000000101100101 #
b00000000000000000000000011101110 $
b00 '
1(
b00000000000000000000000001011010 -
b0001011001 /
b01 0
b00000000000000000000000001011001 1
#900
03
#905
13
#907
b00000000000000000000000101101000 #
b00000000000000001111111011100111 $
b01 '
0(
b00000000000000000000000001011011 -
b0001011010 /
b00 0
b00000000000000000000000001011010 1
#910
03
#915
13
#917
b00000000000000000000000101101110 #
b00000000000000000000000011010100 $
b00 '
1(
b00000000000000000000000001011100 -
b0001011011 /
b10 0
b00000000000000000000000001011011 1
#920
03
#925
13
#927
b00000000000000000000000101110000 #
b00000000000000000000000010110100 $
b00000000000000000000000001011101 -
b0001011100 /
b00 0
b00000000000000000000000001011100 1
#930
03
#935
13
#937
b00000000000000000000000101110110 #
b00000000000000000000000001010010 $
b00000000000000000000000001011110 -
b0001011101 /
b10 0
b00000000000000000000000001011101 1
#940
03
#945
13
#947
b00000000000000000000000101111010 #
b00000000000000000000000000011111 $
b00000000000000000000000001011111 -
b0001011110 /
b00000000000000000000000001011110 1
#950
03
#955
13
#957
b00000000000000000000000101111110 #
b00000000000000000101111110111010 $
b01 '
0(
b00000000000000000000000001100000 -
b0001011111 /
b00000000000000000000000001011111 1
#960
03
#965
13
#967
b00000000000000000000000110000000 #
b11111010000000110011100111011101 $
b10 '
1(
b00000000000000000000000001100001 -
b0001100000 /
b00 0
b00000000000000000000000001100000 1
#970
03
#975
13
#977
b00000000000000000000000110000100 #
b00000000000000001111010000011110 $
b01 '
b00000000000000000000000001100010 -
b0001100001 /
b00000000000000000000000001100001 1
#980
03
#985
13
#987
b00000000000000000000000110001010 #
b00000000000000000111000111111101 $
b00000000000000000000000001100011 -
b0001100010 /
b10 0
b00000000000000000000000001100010 1
#990
03
#995
13
#997
b00000000000000000000000110001100 #
b00000000000000000011101101011010 $
b00000000000000000000000001100100 -
b0001100011 /
b00 0
b00000000000000000000000001100011 1
#1000
03
#1005
13
#1007
b00000000000000000000000110010000 #
b00000001101010000110110100100111 $
b10 '
0(
b00000000000000000000000001100101 -
b0001100100 /
b00000000000000000000000001100100 1
#1010
03
#1015
13
#1017
b00000000000000000000000110010110 #
b00000000000000000000000011011110 $
b00 '
b00000000000000000000000001100110 -
b0001100101 /
b10 0
b00000000000000000000000001100101 1
#1020
03
#1025
13
#1027
b00000000000000000000000110011001 #
b00000000000000000000000010110100 $
b00000000000000000000000001100111 -
b0001100110 /
b01 0
b00000000000000000000000001100110 1
#1030
03
#1035
13
#1037
b00000000000000000000000110011110 #
b00000000000000000011110101001101 $
b01 '
1(
b00000000000000000000000001101000 -
b0001100111 /
b10 0
b00000000000000000000000001100111 1
#1040
03
#1045
13
#1047
b00000000000000000000000110100000 #
b11111001110101000010011111110100 $
b10 '
b00000000000000000000000001101001 -
b0001101000 /
b00 0
b00000000000000000000000001101000 1
#1050
03
#1055
13
#1057
b00000000000000000000000110100101 #
b00000000000000000000000010001111 $
b00 '
b00000000000000000000000001101010 -
b0001101001 /
b01 0
b00000000000000000000000001101001 1
#1060
03
#1065
13
#1067
b00000000000000000000000110101000 #
b01000111000000010011101011010011 $
b10 '
b00000000000000000000000001101011 -
b0001101010 /
b00 0
b00000000000000000000000001101010 1
#1070
03
#1075
13
#1077
b00000000000000000000000110101110 #
b00000000000000000000000011111100 $
b00 '
b00000000000000000000000001101100 -
b0001101011 /
b10 0
b00000000000000000000000001101011 1
#1080
03
#1085
13
#1087
b00000000000000000000000110110011 #
b00000000000000000000000000000001 $
0(
b00000000000000000000000001101101 -
b0001101100 /
b11 0
b00000000000000000000000001101100 1
#1090
03
#1095
13
#1097
b00000000000000000000000110110101 #
b00000000000000000000000011000000 $
b00000000000000000000000001101110 -
b0001101101 /
b01 0
b00000000000000000000000001101101 1
#1100
03
#1105
13
#1107
b00000000000000000000000110111000 #
b00000000000000001001101100010011 $
b01 '
1(
b00000000000000000000000001101111 -
b0001101110 /
b00 0
b00000000000000000000000001101110 1
#1110
03
#1115
13
#1117
b00000000000000000000000110111100 #
b00000000000000001010111000101110 $
0(
b00000000000000000000000001110000 -
b0001101111 /
b00000000000000000000000001101111 1
#1120
03
#1125
13
#1127
b00000000000000000000000111000010 #
b00000000000000001001110100000100 $
1(
b00000000000000000000000001110001 -
b0001110000 /
b10 0
b00000000000000000000000001110000 1
#1130
03
#1135
13
#1137
b00000000000000000000000111000111 #
b00000000000000000000000010001011 $
b00 '
0(
b00000000000000000000000001110010 -
b0001110001 /
b11 0
b00000000000000000000000001110001 1
#1140
03
#1145
13
#1147
b00000000000000000000000111001000 #
b10001110000101100101101111010001 $
b10 '
1(
b00000000000000000000000001110011 -
b0001110010 /
b00 0
b00000000000000000000000001110010 1
#1150
03
#1155
13
#1157
b00000000000000000000000111001100 #
b01110010100101101101110010110101 $
0(
b00000000000000000000000001110100 -
b0001110011 /
b00000000000000000000000001110011 1
#1160
03
#1165
13
#1167
b00000000000000000000000111010001 #
b00000000000000000000000011101111 $
b00 '
1(
b00000000000000000000000001110101 -
b0001110100 /
b01 0
b00000000000000000000000001110100 1
#1170
03
#1175
13
#1177
b00000000000000000000000111010110 #
b00000000000000000010111111010010 $
b01 '
0(
b00000000000000000000000001110110 -
b0001110101 /
b10 0
b00000000000000000000000001110101 1
#1180
03
#1185
13
#1187
b00000000000000000000000111011000 #
b00000000000000000000000010101000 $
b00 '
1(
b00000000000000000000000001110111 -
b0001110110 /
b00 0
b00000000000000000000000001110110 1
#1190
03
#1195
13
#1197
b00000000000000000000000111011100 #
b11001111000011100010001110100011 $
b10 '
0(
b00000000000000000000000001111000 -
b0001110111 /
b00000000000000000000000001110111 1
#1200
03
#1205
13
#1207
b00000000000000000000000111100000 #
b00010011000100010000001010010011 $
1(
b00000000000000000000000001111001 -
b0001111000 /
b00000000000000000000000001111000 1
#1210
03
#1215
13
#1217
b00000000000000000000000111100101 #
b00000000000000000000000011110111 $
b00 '
0(
b00000000000000000000000001111010 -
b0001111001 /
b01 0
b00000000000000000000000001111001 1
#1220
03
#1225
13
#1227
b00000000000000000000000111101000 #
b00000000000000001100110010001110 $
b01 '
1(
b00000000000000000000000001111011 -
b0001111010 /
b00 0
b00000000000000000000000001111010 1
#1230
03
#1235
13
#1237
b00000000000000000000000111101100 #
b00000000000000001100110001110111 $
0(
b00000000000000000000000001111100 -
b0001111011 /
b00000000000000000000000001111011 1
#1240
03
#1245
13
#1247
b00000000000000000000000111110000 #
b11111010111010001100001000101001 $
b10 '
1(
b00000000000000000000000001111101 -
b0001111100 /
b00000000000000000000000001111100 1
#1250
03
#1255
13
#1257
b00000000000000000000000111110100 #
b10110110000011101110010011010000 $
0(
b00000000000000000000000001111110 -
b0001111101 /
b00000000000000000000000001111101 1
#1260
03
#1265
13
#1267
b00000000000000000000000111111010 #
b00000000000000000000000000000100 $
b00 '
1(
b00000000000000000000000001111111 -
b0001111110 /
b10 0
b00000000000000000000000001111110 1
#1270
03
#1275
13
#1277
b00000000000000000000000111111100 #
b00000000000000000110001101000010 $
b01 '
b00000000000000000000000010000000 -
b0001111111 /
b00 0
b00000000000000000000000001111111 1
#1280
03
#1285
13
#1287
b00000000000000000000001000000010 #
b00000000000000000000000011001111 $
b00 '
b00000000000000000000000010000001 -
b0010000000 /
b10 0
b00000000000000000000000010000000 1
#1290
03
#1295
13
#1297
b00000000000000000000001000000100 #
b00000000000000000000000010011011 $
b00000000000000000000000010000010 -
b0010000001 /
b00 0
b00000000000000000000000010000001 1
#1300
03
#1305
13
#1307
b00000000000000000000001000001000 #
b11001001011110011001011100010111 $
b10 '
b00000000000000000000000010000011 -
b0010000010 /
b00000000000000000000000010000010 1
#1310
03
#1315
13
#1317
b00000000000000000000001000001111 #
b00000000000000000000000000111110 $
b00 '
b00000000000000000000000010000100 -
b0010000011 /
b11 0
b00000000000000000000000010000011 1
#1320
03
#1325
13
#1327
b00000000000000000000001000010010 #
b00000000000000001010010110001001 $
b01 '
b00000000000000000000000010000101 -
b0010000100 /
b10 0
b00000000000000000000000010000100 1
#1330
03
#1335
13
#1337
b00000000000000000000001000010100 #
b00000000000000000000000001101000 $
b00000000000000000000000010000110 -
b0010000101 /
b00 0
b00000000000000000000000010000101 1
#1340
03
#1345
13
#1347
b00000000000000000000001000011010 #
b00000000000000000001001010011110 $
0(
b00000000000000000000000010000111 -
b0010000110 /
b10 0
b00000000000000000000000010000110 1
#1350
03
#1355
13
#1357
b00000000000000000000001000011110 #
b00000000000000000111011000101110 $
b00000000000000000000000010001000 -
b0010000111 /
b00000000000000000000000010000111 1
#1360
03
#1365
13
