dumb.vcd
$version Generated by VerilatedVcd $end
$timescale 1ps $end

 $scope module TOP $end
  $scope module alu_tb $end
   $var wire  4 % alu_control [3:0] $end
   $var wire 32 1 alu_result [31:0] $end
   $var wire  1 4 carry_flag $end
   $var wire 32 / error_count [31:0] $end
   $var wire  1 ) expected_carry $end
   $var wire  1 ( expected_negative $end
   $var wire  1 * expected_overflow $end
   $var wire 32 & expected_result [31:0] $end
   $var wire  1 ' expected_zero $end
   $var wire 32 , file [31:0] $end
   $var wire 32 . line [31:0] $end
   $var wire  1 3 negative_flag $end
   $var wire 32 + op_val [31:0] $end
   $var wire  1 5 overflow_flag $end
   $var wire 32 - r [31:0] $end
   $var wire 32 # source_a [31:0] $end
   $var wire 32 $ source_b [31:0] $end
   $var wire  1 2 zero_flag $end
   $scope module dut $end
    $var wire  4 % alu_control [3:0] $end
    $var wire 32 1 alu_result [31:0] $end
    $var wire  1 4 carry_flag $end
    $var wire  1 3 negative_flag $end
    $var wire  1 5 overflow_flag $end
    $var wire  5 0 shamt [4:0] $end
    $var wire 32 # source_a [31:0] $end
    $var wire 32 $ source_b [31:0] $end
    $var wire 33 6 temp_result [32:0] $end
    $var wire  1 2 zero_flag $end
   $upscope $end
  $upscope $end
  $scope module riscv_pkg $end
   $var wire 32 : DMEM_SIZE [31:0] $end
   $var wire  3 D FUNCT3_ADD [2:0] $end
   $var wire  3 D FUNCT3_ADDI [2:0] $end
   $var wire  3 I FUNCT3_AND [2:0] $end
   $var wire  3 I FUNCT3_ANDI [2:0] $end
   $var wire  3 D FUNCT3_BEQ [2:0] $end
   $var wire  3 G FUNCT3_BGE [2:0] $end
   $var wire  3 I FUNCT3_BGEU [2:0] $end
   $var wire  3 F FUNCT3_BLT [2:0] $end
   $var wire  3 H FUNCT3_BLTU [2:0] $end
   $var wire  3 E FUNCT3_BNE [2:0] $end
   $var wire  3 D FUNCT3_JALR [2:0] $end
   $var wire  3 D FUNCT3_LB [2:0] $end
   $var wire  3 F FUNCT3_LBU [2:0] $end
   $var wire  3 E FUNCT3_LH [2:0] $end
   $var wire  3 G FUNCT3_LHU [2:0] $end
   $var wire  3 J FUNCT3_LW [2:0] $end
   $var wire  3 H FUNCT3_OR [2:0] $end
   $var wire  3 H FUNCT3_ORI [2:0] $end
   $var wire  3 D FUNCT3_SB [2:0] $end
   $var wire  3 E FUNCT3_SH [2:0] $end
   $var wire  3 E FUNCT3_SLL [2:0] $end
   $var wire  3 E FUNCT3_SLLI [2:0] $end
   $var wire  3 J FUNCT3_SLT [2:0] $end
   $var wire  3 J FUNCT3_SLTI [2:0] $end
   $var wire  3 K FUNCT3_SLTIU [2:0] $end
   $var wire  3 K FUNCT3_SLTU [2:0] $end
   $var wire  3 G FUNCT3_SRA [2:0] $end
   $var wire  3 G FUNCT3_SRAI [2:0] $end
   $var wire  3 G FUNCT3_SRL [2:0] $end
   $var wire  3 G FUNCT3_SRLI [2:0] $end
   $var wire  3 D FUNCT3_SUB [2:0] $end
   $var wire  3 J FUNCT3_SW [2:0] $end
   $var wire  3 F FUNCT3_XOR [2:0] $end
   $var wire  3 F FUNCT3_XORI [2:0] $end
   $var wire  7 L FUNCT7_ADD [6:0] $end
   $var wire  7 L FUNCT7_AND [6:0] $end
   $var wire  7 L FUNCT7_OR [6:0] $end
   $var wire  7 L FUNCT7_SLL [6:0] $end
   $var wire  7 L FUNCT7_SLLI [6:0] $end
   $var wire  7 L FUNCT7_SLT [6:0] $end
   $var wire  7 L FUNCT7_SLTU [6:0] $end
   $var wire  7 M FUNCT7_SRA [6:0] $end
   $var wire  7 M FUNCT7_SRAI [6:0] $end
   $var wire  7 L FUNCT7_SRL [6:0] $end
   $var wire  7 L FUNCT7_SRLI [6:0] $end
   $var wire  7 M FUNCT7_SUB [6:0] $end
   $var wire  7 L FUNCT7_XOR [6:0] $end
   $var wire 32 : MEM_SIZE [31:0] $end
   $var wire  7 < OPCODE_AUIPC [6:0] $end
   $var wire  7 ? OPCODE_BRANCH [6:0] $end
   $var wire  7 B OPCODE_I_TYPE [6:0] $end
   $var wire  7 = OPCODE_JAL [6:0] $end
   $var wire  7 > OPCODE_JALR [6:0] $end
   $var wire  7 @ OPCODE_LOAD [6:0] $end
   $var wire  7 ; OPCODE_LUI [6:0] $end
   $var wire  7 C OPCODE_R_TYPE [6:0] $end
   $var wire  7 A OPCODE_STORE [6:0] $end
   $var wire 32 9 REG_ADDR_WIDTH [31:0] $end
   $var wire 32 8 XLEN [31:0] $end
  $upscope $end
 $upscope $end
$enddefinitions $end


#0
b00000000000000000000000000000000 #
b00000000000000000000000000000000 $
b0000 %
b00000000000000000000000000000000 &
0'
0(
0)
0*
b00000000000000000000000000000000 +
b00000000000000000000000000000000 ,
b00000000000000000000000000000000 -
b00000000000000000000000000000000 .
b00000000000000000000000000000000 /
b00000 0
b00000000000000000000000000000000 1
12
03
04
05
b000000000000000000000000000000000 6
b00000000000000000000000000100000 8
b00000000000000000000000000000101 9
b00000000000000000000010000000000 :
b0110111 ;
b0010111 <
b1101111 =
b1100111 >
b1100011 ?
b0000011 @
b0100011 A
b0010011 B
b0110011 C
b000 D
b001 E
b100 F
b101 G
b110 H
b111 I
b010 J
b011 K
b0000000 L
b0100000 M
#20
b01110010010100101101110000110011 #
b11000101101010101111100001001001 $
b0101 %
b10100101101110000110011000000000 &
1(
b00000000000000000000000000000101 +
b10000000000000000000000000101100 ,
b00000000000000000000000000001000 -
b01001 0
b10100101101110000110011000000000 1
02
13
#30
b00010010110110011011010001010111 #
b00000101001100100110110000100010 $
b0110 %
b00000100101101100110110100010101 &
0(
b00000000000000000000000000000110 +
b00000000000000000000000000000001 .
b00010 0
b00000100101101100110110100010101 1
03
#40
b11101110010010101010111110001010 #
b10011011110011010010001000111111 $
b0011 %
b11111111110011111010111110111111 &
1(
b00000000000000000000000000000011 +
b00000000000000000000000000000010 .
b11111 0
b11111111110011111010111110111111 1
13
#50
b10100010100100011010011001000010 #
b01000110100101010101010001100001 $
b1000 %
b00000000000000000000000000000001 &
0(
b00000000000000000000000000001000 +
b00000000000000000000000000000011 .
b00001 0
b00000000000000000000000000000001 1
03
#60
b01001010001001001011101111111001 #
b11000100000001000010101010111001 $
b0010 %
b01000000000001000010101010111001 &
b00000000000000000000000000000010 +
b00000000000000000000000000000100 .
b11001 0
b01000000000001000010101010111001 1
#70
b01110101001111101000100000001011 #
b00000010010110100100011000111011 $
b0110 %
b00000000000000000000000000001110 &
b00000000000000000000000000000110 +
b00000000000000000000000000000101 .
b11011 0
b00000000000000000000000000001110 1
#80
b01111001001010000100000111100001 #
b11110111110011110011010101111100 $
b0101 %
b00010000000000000000000000000000 &
b00000000000000000000000000000101 +
b00000000000000000000000000000110 .
b11100 0
b00010000000000000000000000000000 1
#90
b00001100110111001111101101011011 #
b00000010000001010010010110110111 $
b0111 %
b00000000000000000000000000011001 &
b00000000000000000000000000000111 +
b00000000000000000000000000000111 .
b10111 0
b00000000000000000000000000011001 1
#100
b01011100011001000100001100101111 #
b01101110111010010000010001000111 $
b0100 %
b00110010100011010100011101101000 &
b00000000000000000000000000000100 +
b00000000000000000000000000001000 .
b00111 0
b00110010100011010100011101101000 1
#110
b00100011110111111110100111111110 #
b10001001101100010110110101001111 $
b0001 %
b10011010001011100111110010101111 &
1(
1)
1*
b00000000000000000000000000000001 +
b00000000000000000000000000001001 .
b01111 0
b10011010001011100111110010101111 1
13
14
15
b110011010001011100111110010101111 6
#120
b10000111001101100001110100011010 #
b01000101110010111001111000000111 $
b1001 %
b00000000000000000000000000000000 &
1'
0(
0)
0*
b00000000000000000000000000001001 +
b00000000000000000000000000001010 .
b00111 0
b00000000000000000000000000000000 1
12
03
04
05
b000000000000000000000000000000000 6
#130
b10100001101000100100111001110110 #
b01101001000110011001010111101010 $
b0001 %
b00111000100010001011100010001100 &
0'
1*
b00000000000000000000000000000001 +
b00000000000000000000000000001011 .
b01010 0
b00111000100010001011100010001100 1
02
15
b000111000100010001011100010001100 6
#140
b11110000000100111000111000001100 #
b10010010000101000000111010011000 $
b0111 %
b11111111111111111111111111110000 &
1(
0*
b00000000000000000000000000000111 +
b00000000000000000000000000001100 .
b11000 0
b11111111111111111111111111110000 1
13
05
b000000000000000000000000000000000 6
#150
b11100001101110110001001101011101 #
b01010100101111101100000010101101 $
b0010 %
b01000000101110100000000000001101 &
0(
b00000000000000000000000000000010 +
b00000000000000000000000000001101 .
b01101 0
b01000000101110100000000000001101 1
03
#160
b00100001011100111100100101001000 #
b01010111101110011011111101101000 $
b00000001001100011000100101001000 &
b00000000000000000000000000001110 .
b01000 0
b00000001001100011000100101001000 1
#170
b01100100100001110100111110100101 #
b10001000011010010001000011011001 $
b0001 %
b11011100000111100011111011001100 &
1(
1)
1*
b00000000000000000000000000000001 +
b00000000000000000000000000001111 .
b11001 0
b11011100000111100011111011001100 1
13
14
15
b111011100000111100011111011001100 6
#180
b11000000110011000011110000110101 #
b11111100011001110010000110010101 $
b0100 %
b00111100101010110001110110100000 &
0(
0)
0*
b00000000000000000000000000000100 +
b00000000000000000000000000010000 .
b10101 0
b00111100101010110001110110100000 1
03
04
05
b000000000000000000000000000000000 6
#190
b10101101110100110111101001110100 #
b00001100100001101001100001011010 $
b0101 %
b11010000000000000000000000000000 &
1(
b00000000000000000000000000000101 +
b00000000000000000000000000010001 .
b11010 0
b11010000000000000000000000000000 1
13
#200
b01000111100101001100001011110101 #
b01010110011111001100110110010100 $
b0010 %
b01000110000101001100000010010100 &
0(
b00000000000000000000000000000010 +
b00000000000000000000000000010010 .
b10100 0
b01000110000101001100000010010100 1
03
#210
b11100110101001101011111100110010 #
b11111011001101100011111111000100 $
b0000 %
b11100001110111001111111011110110 &
1(
1)
b00000000000000000000000000000000 +
b00000000000000000000000000010011 .
b00100 0
b11100001110111001111111011110110 1
13
14
b111100001110111001111111011110110 6
#220
b00100011101111111001111100101110 #
b00110101010111000101011110010001 $
b01011001000110111111011010111111 &
0(
0)
b00000000000000000000000000010100 .
b10001 0
b01011001000110111111011010111111 1
03
04
b001011001000110111111011010111111 6
#230
b10111101110000100111010010011001 #
b10111001101000101100110010101011 $
b0110 %
b00000000000101111011100001001110 &
b00000000000000000000000000000110 +
b00000000000000000000000000010101 .
b01011 0
b00000000000101111011100001001110 1
b000000000000000000000000000000000 6
#240
b00000010011001100000010101010101 #
b10100001001010000111000011011100 $
b0101 %
b01010000000000000000000000000000 &
b00000000000000000000000000000101 +
b00000000000000000000000000010110 .
b11100 0
b01010000000000000000000000000000 1
#250
b11000001011110010001100001011100 #
b11011111010011101001101011100001 $
b0011 %
b11011111011111111001101011111101 &
1(
b00000000000000000000000000000011 +
b00000000000000000000000000010111 .
b00001 0
b11011111011111111001101011111101 1
13
#260
b00101110010001111111011001101110 #
b01010110000111110100001111000010 $
b1000 %
b00000000000000000000000000000001 &
0(
b00000000000000000000000000001000 +
b00000000000000000000000000011000 .
b00010 0
b00000000000000000000000000000001 1
03
#270
b01111100111101011010011000110011 #
b01011101001101000010011101000110 $
b0101 %
b00111101011010011000110011000000 &
b00000000000000000000000000000101 +
b00000000000000000000000000011001 .
b00110 0
b00111101011010011000110011000000 1
#280
b00110100100101011010001010111000 #
b01000101110011000010111010111111 $
b1000 %
b00000000000000000000000000000001 &
b00000000000000000000000000001000 +
b00000000000000000000000000011010 .
b11111 0
b00000000000000000000000000000001 1
#290
b10000010100010010001010001011000 #
b10011111110111001011010111101011 $
b0010 %
b10000010100010000001010001001000 &
1(
b00000000000000000000000000000010 +
b00000000000000000000000000011011 .
b01011 0
b10000010100010000001010001001000 1
13
#300
b11001000010011000101000011001000 #
b11101100001100010101011000110010 $
b1000 %
b00000000000000000000000000000001 &
0(
b00000000000000000000000000001000 +
b00000000000000000000000000011100 .
b10010 0
b00000000000000000000000000000001 1
03
#310
b11101010001010110101110010101001 #
b11010011011100111100101100101010 $
b0001 %
b00010110101101111001000101111111 &
b00000000000000000000000000000001 +
b00000000000000000000000000011101 .
b01010 0
b00010110101101111001000101111111 1
b000010110101101111001000101111111 6
#320
b11001101011111110111110001010101 #
b10011001111001000111110001011000 $
b1000 %
b00000000000000000000000000000000 &
1'
b00000000000000000000000000001000 +
b00000000000000000000000000011110 .
b11000 0
b00000000000000000000000000000000 1
12
b000000000000000000000000000000000 6
#330
b00100101011101010101000100100111 #
b10101101111111101111100110110110 $
b00000000000000000000000000011111 .
b10110 0
#340
b00110010001111011101011101010111 #
b10011100110111111000100010101100 $
b0110 %
b00000000000000110010001111011101 &
0'
b00000000000000000000000000000110 +
b00000000000000000000000000100000 .
b01100 0
b00000000000000110010001111011101 1
02
#350
b10000110000000011110001100100001 #
b00110100111101101100010101111101 $
b00000000000000000000000000000100 &
b00000000000000000000000000100001 .
b11101 0
b00000000000000000000000000000100 1
#360
b11011011101000001111000101000001 #
b01100101101001101111001011100110 $
b0010 %
b01000001101000001111000001000000 &
b00000000000000000000000000000010 +
b00000000000000000000000000100010 .
b00110 0
b01000001101000001111000001000000 1
#370
b01000001100011011001001001010110 #
b11010101001011110000110010011110 $
b0100 %
b10010100101000101001111011001000 &
1(
b00000000000000000000000000000100 +
b00000000000000000000000000100011 .
b11110 0
b10010100101000101001111011001000 1
13
#380
b00011001110100001110010010010010 #
b01111110001011010010111111100101 $
b01100111111111011100101101110111 &
0(
b00000000000000000000000000100100 .
b00101 0
b01100111111111011100101101110111 1
03
#390
b01000111010010000000100110010001 #
b00100011011011111101011011111010 $
b0101 %
b01000100000000000000000000000000 &
b00000000000000000000000000000101 +
b00000000000000000000000000100101 .
b11010 0
b01000100000000000000000000000000 1
#400
b11010001010100111110010011010100 #
b11011111000000011010111110101110 $
b0001 %
b11110010010100100011010100100110 &
1(
1)
b00000000000000000000000000000001 +
b00000000000000000000000000100110 .
b01110 0
b11110010010100100011010100100110 1
13
14
b111110010010100100011010100100110 6
#410
b01000111100100010101110110001011 #
b10011101111010111111111100010011 $
b0000 %
b11100101011111010101110010011110 &
0)
b00000000000000000000000000000000 +
b00000000000000000000000000100111 .
b10011 0
b11100101011111010101110010011110 1
04
b011100101011111010101110010011110 6
#420
b00010100110011010001101010111000 #
b10000110100111110101100001010110 $
b0100 %
b10010010010100100100001011101110 &
b00000000000000000000000000000100 +
b00000000000000000000000000101000 .
b10110 0
b10010010010100100100001011101110 1
b000000000000000000000000000000000 6
#430
b00000111100111010000111111011001 #
b11110000000110001111100111000111 $
b0000 %
b11110111101101100000100110100000 &
b00000000000000000000000000000000 +
b00000000000000000000000000101001 .
b00111 0
b11110111101101100000100110100000 1
b011110111101101100000100110100000 6
#440
b00000101010101101101110111001011 #
b11011100101011101010101110011100 $
b1000 %
b00000000000000000000000000000000 &
1'
0(
b00000000000000000000000000001000 +
b00000000000000000000000000101010 .
b11100 0
b00000000000000000000000000000000 1
12
03
b000000000000000000000000000000000 6
#450
b11001111110011000111111011110000 #
b11011010011100001101111110100110 $
b0000 %
b10101010001111010101111010010110 &
0'
1(
1)
b00000000000000000000000000000000 +
b00000000000000000000000000101011 .
b00110 0
b10101010001111010101111010010110 1
02
13
14
b110101010001111010101111010010110 6
#460
b01100011011101010010111110110001 #
b10101011001110111110000110100110 $
b0101 %
b11011101010010111110110001000000 &
0)
b00000000000000000000000000000101 +
b00000000000000000000000000101100 .
b11011101010010111110110001000000 1
04
b000000000000000000000000000000000 6
#470
b11100011000111111101001100111011 #
b10000001111010101110011110011000 $
b0010 %
b10000001000010101100001100011000 &
b00000000000000000000000000000010 +
b00000000000000000000000000101101 .
b11000 0
b10000001000010101100001100011000 1
#480
b00110001001101000111011100101000 #
b10000000001011111001000111110110 $
b0111 %
b00000000000000000000000011000100 &
0(
b00000000000000000000000000000111 +
b00000000000000000000000000101110 .
b10110 0
b00000000000000000000000011000100 1
03
#490
b00011000001101100100111100110001 #
b00011100001100101000011111010100 $
b0001 %
b11111100000000111100011101011101 &
1(
1)
b00000000000000000000000000000001 +
b00000000000000000000000000101111 .
b10100 0
b11111100000000111100011101011101 1
13
14
b111111100000000111100011101011101 6
#500
b11010001101010101000110111000101 #
b11010001001100111011011000010111 $
b0110 %
b00000000000000000000000110100011 &
0(
0)
b00000000000000000000000000000110 +
b00000000000000000000000000110000 .
b10111 0
b00000000000000000000000110100011 1
03
04
b000000000000000000000000000000000 6
#510
b01001010100000111101110000100011 #
b00000101010010110111110001110010 $
b0001 %
b01000101001110000101111110110001 &
b00000000000000000000000000000001 +
b00000000000000000000000000110001 .
b10010 0
b01000101001110000101111110110001 1
b001000101001110000101111110110001 6
#520
b10100011000011100001111001101001 #
b10000100000111001011110100000011 $
b1000 %
b00000000000000000000000000000000 &
1'
b00000000000000000000000000001000 +
b00000000000000000000000000110010 .
b00011 0
b00000000000000000000000000000000 1
12
b000000000000000000000000000000000 6
#530
b00101011100101110010100101010110 #
b11010101101111111100100001111000 $
b1001 %
b00000000000000000000000000000001 &
0'
b00000000000000000000000000001001 +
b00000000000000000000000000110011 .
b11000 0
b00000000000000000000000000000001 1
02
#540
b11101110010011000011111010101011 #
b11110000010001111110111100010101 $
b1000 %
b00000000000000000000000000001000 +
b00000000000000000000000000110100 .
b10101 0
#550
b11110000001110000010011110011100 #
b01110010000111110101001011011100 $
b0000 %
b01100010010101110111101001111000 &
1)
b00000000000000000000000000000000 +
b00000000000000000000000000110101 .
b11100 0
b01100010010101110111101001111000 1
14
b101100010010101110111101001111000 6
#560
b00100101101011101110000001010000 #
b10110001001101001010101100101011 $
b0111 %
b00000000000001001011010111011100 &
0)
b00000000000000000000000000000111 +
b00000000000000000000000000110110 .
b01011 0
b00000000000001001011010111011100 1
04
b000000000000000000000000000000000 6
#570
b11111111011101100111010100001101 #
b10101100011001011101101110111011 $
b1001 %
b00000000000000000000000000000000 &
1'
b00000000000000000000000000001001 +
b00000000000000000000000000110111 .
b11011 0
b00000000000000000000000000000000 1
12
#580
b00010000100101111011010100000010 #
b10001011001001110111110100001100 $
b0101 %
b01111011010100000010000000000000 &
0'
b00000000000000000000000000000101 +
b00000000000000000000000000111000 .
b01100 0
b01111011010100000010000000000000 1
02
#590
b10000101101111010111010011100111 #
b11000000000110011100000000001110 $
b0001 %
b11000101101000111011010011011001 &
1(
1)
b00000000000000000000000000000001 +
b00000000000000000000000000111001 .
b01110 0
b11000101101000111011010011011001 1
13
14
b111000101101000111011010011011001 6
#600
b00000111010010111110101101001011 #
b01010110010000110011011010101111 $
b0110 %
b00000000000000000000111010010111 &
0(
0)
b00000000000000000000000000000110 +
b00000000000000000000000000111010 .
b01111 0
b00000000000000000000111010010111 1
03
04
b000000000000000000000000000000000 6
#610
b11111010011111101111000010001000 #
b10000011101001110101010000001110 $
b0000 %
b01111110001001100100010010010110 &
1)
1*
b00000000000000000000000000000000 +
b00000000000000000000000000111011 .
b01110 0
b01111110001001100100010010010110 1
14
15
b101111110001001100100010010010110 6
#620
b11011101011011110110101000111010 #
b00010101110100011000011111001110 $
b0101 %
b11011010100011101000000000000000 &
1(
0)
0*
b00000000000000000000000000000101 +
b00000000000000000000000000111100 .
b11011010100011101000000000000000 1
13
04
05
b000000000000000000000000000000000 6
#630
b10010101011110111100101110000111 #
b10001111111111010100101001110111 $
b1001 %
b00000000000000000000000000000000 &
1'
0(
b00000000000000000000000000001001 +
b00000000000000000000000000111101 .
b10111 0
b00000000000000000000000000000000 1
12
03
#640
b11010101001111111011101101011110 #
b11000011010101000110101100101110 $
b0010 %
b11000001000101000010101100001110 &
0'
1(
b00000000000000000000000000000010 +
b00000000000000000000000000111110 .
b01110 0
b11000001000101000010101100001110 1
02
13
#650
b10011101111001110100100110001001 #
b00100110101011111011000011111100 $
b0101 %
b10010000000000000000000000000000 &
b00000000000000000000000000000101 +
b00000000000000000000000000111111 .
b11100 0
b10010000000000000000000000000000 1
#660
b00111011110100010110110011111010 #
b00010010000101010010001001011101 $
b0111 %
b00000000000000000000000000000001 &
0(
b00000000000000000000000000000111 +
b00000000000000000000000001000000 .
b11101 0
b00000000000000000000000000000001 1
03
#670
b00011001000100110101111010111010 #
b11011100001010010111100110010110 $
b1000 %
b00000000000000000000000000000000 &
1'
b00000000000000000000000000001000 +
b00000000000000000000000001000001 .
b10110 0
b00000000000000000000000000000000 1
12
#680
b00101111111011001000101101100100 #
b01001100110000101001100100000010 $
b0011 %
b01101111111011101001101101100110 &
0'
b00000000000000000000000000000011 +
b00000000000000000000000001000010 .
b00010 0
b01101111111011101001101101100110 1
02
#690
b01011001011111001110000101011000 #
b00001000001010010111010111101010 $
b0000 %
b01100001101001100101011101000010 &
b00000000000000000000000000000000 +
b00000000000000000000000001000011 .
b01010 0
b01100001101001100101011101000010 1
b001100001101001100101011101000010 6
#700
b01111101010111001110010101111110 #
b10000011100000000001010100101101 $
b0011 %
b11111111110111001111010101111111 &
1(
b00000000000000000000000000000011 +
b00000000000000000000000001000100 .
b01101 0
b11111111110111001111010101111111 1
13
b000000000000000000000000000000000 6
#710
b10100011100011010010110000101100 #
b10000001011101000110000110100011 $
b10100011111111010110110110101111 &
b00000000000000000000000001000101 .
b00011 0
b10100011111111010110110110101111 1
#720
b11100001101110010010010001110010 #
b11011110000011001010011010110001 $
b0111 %
b11111111111111111111000011011100 &
b00000000000000000000000000000111 +
b00000000000000000000000001000110 .
b10001 0
b11111111111111111111000011011100 1
#730
b01011011010001110110111110001010 #
b10100010000111001010100111010000 $
b00000000000000000101101101000111 &
0(
b00000000000000000000000001000111 .
b10000 0
b00000000000000000101101101000111 1
03
#740
b10101101010110110111011100101001 #
b01100111000010100111100000001110 $
b0101 %
b11011101110010100100000000000000 &
1(
b00000000000000000000000000000101 +
b00000000000000000000000001001000 .
b01110 0
b11011101110010100100000000000000 1
13
#750
b10100001110111001101111111110011 #
b00100000010101001100101010010110 $
b11111100110000000000000000000000 &
b00000000000000000000000001001001 .
b10110 0
b11111100110000000000000000000000 1
#760
b10011001101010011100010101100001 #
b00101100101010010101011111100100 $
b0001 %
b01101101000000000110110101111101 &
0(
1*
b00000000000000000000000000000001 +
b00000000000000000000000001001010 .
b00100 0
b01101101000000000110110101111101 1
03
15
b001101101000000000110110101111101 6
#770
b00010111011101011110110010110000 #
b11111101010101011010011000100000 $
b0100 %
b11101010001000000100101010010000 &
1(
0*
b00000000000000000000000000000100 +
b00000000000000000000000001001011 .
b00000 0
b11101010001000000100101010010000 1
13
05
b000000000000000000000000000000000 6
#780
b01000101010010111100100011010110 #
b01101100001100011011000101001101 $
b0110 %
b00000000000000100010101001011110 &
0(
b00000000000000000000000000000110 +
b00000000000000000000000001001100 .
b01101 0
b00000000000000100010101001011110 1
03
#790
b11101111010101100011111010011001 #
b11010110110011000111000100111000 $
b0010 %
b11000110010001000011000000011000 &
1(
b00000000000000000000000000000010 +
b00000000000000000000000001001101 .
b11000 0
b11000110010001000011000000011000 1
13
#800
b11101000101110001011010111001000 #
b01011000010101111010101100001010 $
b1000 %
b00000000000000000000000000000001 &
0(
b00000000000000000000000000001000 +
b00000000000000000000000001001110 .
b01010 0
b00000000000000000000000000000001 1
03
#810
b00101101101000111111110010110010 #
b00110011010111000101011111001100 $
b1001 %
b00000000000000000000000000001001 +
b00000000000000000000000001001111 .
b01100 0
#820
b01001011110000101000000100110000 #
b01011011000000001001001110100011 $
b0001 %
b11110000110000011110110110001101 &
1(
1)
b00000000000000000000000000000001 +
b00000000000000000000000001010000 .
b00011 0
b11110000110000011110110110001101 1
13
14
b111110000110000011110110110001101 6
#830
b10011010111111011010010010000110 #
b00001010100000100000101110000010 $
b0000 %
b10100101011111111011000000001000 &
0)
b00000000000000000000000000000000 +
b00000000000000000000000001010001 .
b00010 0
b10100101011111111011000000001000 1
04
b010100101011111111011000000001000 6
#840
b10010100100110011001001010101100 #
b00010010001001000011100111000110 $
b0111 %
b11111110010100100110011001001010 &
b00000000000000000000000000000111 +
b00000000000000000000000001010010 .
b00110 0
b11111110010100100110011001001010 1
b000000000000000000000000000000000 6
#850
b10100110000000011001111111100100 #
b01101010111111100111111110001111 $
b1001 %
b00000000000000000000000000000000 &
1'
0(
b00000000000000000000000000001001 +
b00000000000000000000000001010011 .
b01111 0
b00000000000000000000000000000000 1
12
03
#860
b11001110010010011111000110001001 #
b10100110011111110011001111110001 $
b0101 %
b11100011000100100000000000000000 &
0'
1(
b00000000000000000000000000000101 +
b00000000000000000000000001010100 .
b10001 0
b11100011000100100000000000000000 1
02
13
#870
b01101111001010001111010110100101 #
b00001101001011011001001101111001 $
b0011 %
b01101111001011011111011111111101 &
0(
b00000000000000000000000000000011 +
b00000000000000000000000001010101 .
b11001 0
b01101111001011011111011111111101 1
03
#880
b00011011110101110110100011101100 #
b11100110000111000010000101101010 $
b1001 %
b00000000000000000000000000000001 &
b00000000000000000000000000001001 +
b00000000000000000000000001010110 .
b01010 0
b00000000000000000000000000000001 1
#890
b11011101100100110000011001000111 #
b01111101110000010010011010111011 $
b0100 %
b10100000010100100010000011111100 &
1(
b00000000000000000000000000000100 +
b00000000000000000000000001010111 .
b11011 0
b10100000010100100010000011111100 1
13
#900
b11000011110010001001010011000011 #
b11011011000100011111101100000100 $
b0111 %
b11111100001111001000100101001100 &
b00000000000000000000000000000111 +
b00000000000000000000000001011000 .
b00100 0
b11111100001111001000100101001100 1
#910
b01001000110000000100010000110011 #
b11101000110000000001010111100110 $
b1001 %
b00000000000000000000000000000001 &
0(
b00000000000000000000000000001001 +
b00000000000000000000000001011001 .
b00110 0
b00000000000000000000000000000001 1
03
#920
b11010110110011011001001010010101 #
b10011111101001010011000100100011 $
b0000 %
b01110110011100101100001110111000 &
1)
1*
b00000000000000000000000000000000 +
b00000000000000000000000001011010 .
b00011 0
b01110110011100101100001110111000 1
14
15
b101110110011100101100001110111000 6
#930
b10010011000010100000111110110110 #
b01010110110010000000100000110010 $
b0111 %
b11111111111111111110010011000010 &
1(
0)
0*
b00000000000000000000000000000111 +
b00000000000000000000000001011011 .
b10010 0
b11111111111111111110010011000010 1
13
04
05
b000000000000000000000000000000000 6
#940
b11000010100101011111010010100010 #
b01111110101101000000100000110111 $
b0011 %
b11111110101101011111110010110111 &
b00000000000000000000000000000011 +
b00000000000000000000000001011100 .
b10111 0
b11111110101101011111110010110111 1
#950
b11011101011100101000111001000100 #
b11001101001110100111101110001010 $
b0001 %
b00010000001110000001001010111010 &
0(
b00000000000000000000000000000001 +
b00000000000000000000000001011101 .
b01010 0
b00010000001110000001001010111010 1
03
b000010000001110000001001010111010 6
#960
b01111001011100101100101001100011 #
b10010110010101001000000100111011 $
b0110 %
b00000000000000000000000000001111 &
b00000000000000000000000000000110 +
b00000000000000000000000001011110 .
b11011 0
b00000000000000000000000000001111 1
b000000000000000000000000000000000 6
#970
b11101011110000000001110100000010 #
b01001100011001000111011110100111 $
b0101 %
b11100000000011101000000100000000 &
1(
b00000000000000000000000000000101 +
b00000000000000000000000001011111 .
b00111 0
b11100000000011101000000100000000 1
13
#980
b10011010010111111011011011011100 #
b00101011010100100011101110100011 $
b0011 %
b10111011010111111011111111111111 &
b00000000000000000000000000000011 +
b00000000000000000000000001100000 .
b00011 0
b10111011010111111011111111111111 1
#990
b11011001011100000111000010000111 #
b10011000100101001111110110111010 $
b0000 %
b01110010000001010110111001000001 &
0(
1)
1*
b00000000000000000000000000000000 +
b00000000000000000000000001100001 .
b11010 0
b01110010000001010110111001000001 1
03
14
15
b101110010000001010110111001000001 6
#1000
b01011000010001001001110110001100 #
b00100111101111011111110011010000 $
b0001 %
b00110000100001101010000010111100 &
0)
0*
b00000000000000000000000000000001 +
b00000000000000000000000001100010 .
b10000 0
b00110000100001101010000010111100 1
04
05
b000110000100001101010000010111100 6
#1010
b01111100101100111101001100011100 #
b11001110011100111110011111000110 $
b10101110001111111110101101010110 &
1(
1)
1*
b00000000000000000000000001100011 .
b00110 0
b10101110001111111110101101010110 1
13
14
15
b110101110001111111110101101010110 6
#1020
b01100101101100000000011000001001 #
b11000011110100110100111000100101 $
b0101 %
b10110110000000001100000100100000 &
0)
0*
b00000000000000000000000000000101 +
b00000000000000000000000001100100 .
b00101 0
b10110110000000001100000100100000 1
04
05
b000000000000000000000000000000000 6
#1030
b01010110011110101010110011100010 #
b11111011111010001100101100100000 $
b0110 %
b01010110011110101010110011100010 &
0(
b00000000000000000000000000000110 +
b00000000000000000000000001100101 .
b00000 0
b01010110011110101010110011100010 1
03
#1040
b11100000100100000011110001110111 #
b00100001101010101110101100110100 $
b0011 %
b11100001101110101111111101110111 &
1(
b00000000000000000000000000000011 +
b00000000000000000000000001100110 .
b10100 0
b11100001101110101111111101110111 1
13
#1050
b10001000110011000011010001001110 #
b11110001001101110101010111011110 $
b0000 %
b01111010000000111000101000101100 &
0(
1)
1*
b00000000000000000000000000000000 +
b00000000000000000000000001100111 .
b11110 0
b01111010000000111000101000101100 1
03
14
15
b101111010000000111000101000101100 6
#1060
b11101010010101000011110000000011 #
b11110010011010110110100001011111 $
b11011100101111111010010001100010 &
1(
0*
b00000000000000000000000001101000 .
b11111 0
b11011100101111111010010001100010 1
13
05
b111011100101111111010010001100010 6
#1070
b10010010101001001000001010011000 #
b11010111111010011010111111101100 $
b0100 %
b01000101010011010010110101110100 &
0(
0)
b00000000000000000000000000000100 +
b00000000000000000000000001101001 .
b01100 0
b01000101010011010010110101110100 1
03
04
b000000000000000000000000000000000 6
#1080
b11010101110001111000110111000000 #
b00101011101100101011101011001110 $
b0101 %
b11100011011100000000000000000000 &
1(
b00000000000000000000000000000101 +
b00000000000000000000000001101010 .
b01110 0
b11100011011100000000000000000000 1
13
#1090
b00010000011010010001100111100100 #
b11110101000001101101001010110100 $
b1001 %
b00000000000000000000000000000001 &
0(
b00000000000000000000000000001001 +
b00000000000000000000000001101011 .
b10100 0
b00000000000000000000000000000001 1
03
